<svg width="30" height="30" viewBox="0 0 30 30" fill="none" xmlns="http://www.w3.org/2000/svg">
<path d="M14.99 5.27002C16.88 5.30002 18.64 5.73002 20.2 6.83002C22.02 8.12002 23.04 9.93002 23.55 12.07C23.61 12.34 23.68 12.62 23.69 12.9C23.69 13.43 23.9 13.8 24.31 14.16C25.07 14.82 25.37 15.75 25.56 16.72C25.86 18.29 26.23 19.85 26.44 21.44C26.58 22.48 26.1 23.36 25.25 24.01C24.63 24.48 23.94 24.69 23.16 24.71C21.75 24.75 20.38 24.5 19.02 24.23C16.33 23.71 13.65 23.72 10.96 24.22C9.55 24.48 8.14 24.76 6.69 24.69C5.38 24.63 4.31 24.11 3.74 22.85C3.47 22.25 3.5 21.62 3.63 20.98C3.93 19.42 4.21 17.86 4.52 16.3C4.72 15.32 5.24 14.52 6 13.87C6.11 13.78 6.19 13.6 6.2 13.46C6.38 11.43 7.01 9.58002 8.37 8.03002C9.64 6.58002 11.28 5.78002 13.16 5.46002C13.77 5.36002 14.38 5.33002 14.99 5.27002ZM24.44 20.44C24.43 20.3 24.43 20.23 24.42 20.17C24.2 19.07 23.98 17.97 23.76 16.87C23.57 15.92 23.1 15.18 22.22 14.72C22.13 14.67 22.06 14.51 22.06 14.4C22.05 13.36 21.84 12.35 21.48 11.38C20.96 9.97002 20.17 8.76002 18.84 7.97002C17.38 7.11002 15.78 6.96002 14.14 7.09002C13.59 7.13002 13.05 7.26002 12.58 7.33002C12.83 7.66002 13.09 7.94002 13.3 8.27002C13.47 8.53002 13.54 8.85002 13.7 9.11002C13.89 9.41002 14.13 9.69002 14.36 9.95002C14.51 10.12 14.74 10.24 14.64 10.52C14.54 10.79 14.31 10.92 14.03 10.92C13.79 10.92 13.55 10.9 13.32 10.85C12.85 10.74 12.49 10.89 12.16 11.21C12.02 11.35 11.84 11.49 11.66 11.56C11.2 11.74 10.84 11.45 10.94 10.97C11 10.69 11.16 10.41 11.31 10.16C11.51 9.83002 11.77 9.54002 11.98 9.22002C12.06 9.10002 12.12 8.93002 12.11 8.79002C12.07 8.40002 12 8.00002 11.95 7.60002C11.18 7.87002 10.39 8.38002 9.86 8.95002C8.54 10.39 8.01 12.13 7.96 14.03C7.95 14.43 7.86 14.69 7.5 14.9C6.82 15.31 6.4 15.93 6.25 16.72C6.14 17.26 6.03 17.8 5.92 18.34C5.81 18.91 5.71 19.47 5.58 20.12C5.95 19.73 6.27 19.42 6.55 19.08C7.22 18.27 8.11 17.88 9.13 17.81C10.11 17.74 11.1 17.68 12.09 17.68C14.93 17.68 17.77 17.71 20.61 17.76C21.69 17.78 22.61 18.19 23.29 19.07C23.64 19.51 24.02 19.94 24.44 20.44ZM23.92 22.76C23.85 22.64 23.82 22.56 23.76 22.49C23.04 21.59 22.32 20.69 21.59 19.79C21.53 19.71 21.41 19.65 21.3 19.63C20.93 19.57 20.56 19.51 20.19 19.5C17.53 19.46 14.87 19.43 12.2 19.42C11.2 19.42 10.21 19.5 9.21 19.55C8.67 19.57 8.2 19.72 7.88 20.21C7.72 20.45 7.48 20.63 7.31 20.87C6.95 21.35 6.59 21.83 6.27 22.34C6.05 22.7 6.15 22.87 6.58 22.9C6.97 22.93 7.37 22.93 7.76 22.88C9.12 22.69 10.47 22.46 11.83 22.27C13.94 21.97 16.06 21.96 18.17 22.27C19.49 22.46 20.79 22.7 22.11 22.88C22.69 22.97 23.29 23.01 23.92 22.76Z" fill="#98A3AE"/>
<path d="M15.31 16.66C15.21 16.6 15.04 16.55 14.92 16.44C14.66 16.2 14.42 15.95 14.18 15.68C13.92 15.38 13.62 15.19 13.21 15.21C13.01 15.22 12.77 15.19 12.74 14.95C12.72 14.78 12.8 14.54 12.92 14.44C13.09 14.3 13.34 14.23 13.56 14.18C13.77 14.13 14.01 14.2 14.21 14.13C14.45 14.05 14.69 13.91 14.89 13.75C15.04 13.64 15.15 13.45 15.28 13.31C15.46 13.13 15.66 13.07 15.9 13.22C16.15 13.38 16.1 13.6 16.01 13.8C15.91 14.05 15.79 14.29 15.66 14.53C15.48 14.85 15.45 15.16 15.59 15.51C15.68 15.74 15.73 15.99 15.74 16.23C15.76 16.48 15.62 16.63 15.31 16.66Z" fill="#98A3AE"/>
<path d="M22.11 16.91C21.83 16.82 21.52 16.76 21.27 16.63C20.81 16.38 20.32 16.28 19.8 16.26C19.72 16.26 19.63 16.25 19.55 16.24C19.1 16.17 18.99 15.97 19.19 15.57C19.42 15.11 19.74 14.74 20.18 14.47C20.54 14.25 20.85 14.3 21.03 14.66C21.31 15.21 21.73 15.61 22.19 15.98C22.32 16.08 22.44 16.21 22.54 16.33C22.77 16.61 22.7 16.77 22.34 16.83C22.27 16.84 22.2 16.84 22.12 16.85C22.13 16.87 22.12 16.89 22.11 16.91Z" fill="#98A3AE"/>
<path d="M19.07 9.42993C19.45 9.43993 19.6 9.58993 19.56 9.84993C19.53 10.0399 19.45 10.2199 19.38 10.4099C19.19 10.8899 19.15 11.3499 19.46 11.7999C19.52 11.8899 19.55 12.0399 19.54 12.1499C19.52 12.4699 19.34 12.5599 19.08 12.3599C18.84 12.1699 18.62 11.9399 18.44 11.6899C18.19 11.3399 17.88 11.1599 17.44 11.1699C17.26 11.1799 17.06 11.1299 16.91 11.0399C16.67 10.8999 16.69 10.6899 16.93 10.5599C17.13 10.4499 17.35 10.3599 17.57 10.3199C18 10.2499 18.33 10.0399 18.63 9.71993C18.78 9.58993 18.98 9.49993 19.07 9.42993Z" fill="#98A3AE"/>
<path d="M9.38 13.85C9.68 13.89 9.98 13.9 10.27 13.97C10.4 14 10.59 14.14 10.6 14.24C10.61 14.37 10.49 14.55 10.38 14.64C10.23 14.76 10.03 14.81 9.84 14.87C9.2 15.09 9.05 15.31 9.02 15.98C9 16.24 8.95 16.52 8.85 16.76C8.76 16.97 8.58 16.97 8.44 16.77C8.37 16.66 8.3 16.53 8.27 16.41C8.17 15.97 8.06 15.52 8.01 15.07C7.93 14.24 8.29 13.88 9.12 13.87C9.2 13.87 9.29 13.87 9.37 13.87C9.37 13.86 9.38 13.85 9.38 13.85Z" fill="#98A3AE"/>
</svg>
