<svg width="65" height="65" viewBox="0 0 65 65" fill="none" xmlns="http://www.w3.org/2000/svg">
<path fill-rule="evenodd" clip-rule="evenodd" d="M9.53977 57H32.5298H55.5898C57.7498 57 58.8698 55.89 58.8698 53.74V11.39C58.8698 9.24001 57.7498 8.13 55.5898 8.13H9.53977C7.37977 8.13 6.25977 9.24001 6.25977 11.39V53.74C6.25977 55.89 7.37977 57 9.53977 57ZM55.5598 55.1H32.5698H9.57977C8.40977 55.1 8.13977 54.83 8.13977 53.67V11.46C8.13977 10.3 8.40977 10.03 9.57977 10.03H55.5598C56.7298 10.03 56.9998 10.3 56.9998 11.46V53.67C56.9998 54.83 56.7198 55.1 55.5598 55.1ZM47.2696 25.05H37.2796H27.3796C25.7396 25.05 25.0596 25.75 25.0596 27.4V32.22C25.0596 33.72 25.7896 34.47 27.2696 34.47H47.2396C48.7296 34.47 49.4796 33.73 49.4896 32.25C49.4996 30.6 49.4996 28.94 49.4896 27.29C49.4796 25.78 48.7596 25.05 47.2696 25.05ZM39.6743 32.5687C38.8594 32.5694 38.0445 32.57 37.2296 32.57C36.3145 32.57 35.4003 32.5684 34.4868 32.5667C32.206 32.5626 29.9302 32.5586 27.6596 32.58C27.0596 32.58 26.9296 32.41 26.9496 31.84C26.9896 30.42 26.9796 29 26.9496 27.58C26.9396 27.13 27.0196 26.94 27.5396 26.94C34.0396 26.96 40.5396 26.96 47.0396 26.94C47.5296 26.94 47.6196 27.11 47.6096 27.54C47.5796 29.03 47.5796 30.52 47.6096 32.01C47.6196 32.5 47.4496 32.58 47.0096 32.58C44.5645 32.565 42.1194 32.5669 39.6743 32.5687ZM37.3103 15.65H47.1603C48.7903 15.65 49.4803 16.35 49.4903 18C49.4903 18.1346 49.492 18.2684 49.4936 18.4019C49.4977 18.7344 49.5017 19.0646 49.4803 19.4C49.4203 20.48 48.7603 21.17 47.7003 21.29C47.4903 21.31 47.2803 21.32 47.0703 21.32C40.5303 21.32 33.9803 21.32 27.4403 21.33C26.4703 21.33 25.5503 21.15 25.2303 20.13C24.8903 19.06 24.8903 17.91 25.2403 16.84C25.5203 15.96 26.3003 15.67 27.1903 15.67C28.8761 15.665 30.5618 15.6625 32.2488 15.66H32.2489H32.249H32.2491H32.2492H32.2493H32.2494H32.2495H32.2496H32.2497H32.2498H32.2499H32.25H32.2501H32.2502H32.2503C33.9353 15.6575 35.6216 15.655 37.3103 15.65ZM37.2503 17.54H28.1003C27.5253 17.54 27.2453 17.54 27.1041 17.68C26.97 17.8129 26.9609 18.0719 26.9433 18.5767V18.5767L26.9403 18.66C26.9203 19.26 27.0603 19.44 27.7003 19.44C32.6753 19.416 37.6439 19.4176 42.6163 19.4192H42.6165H42.6166H42.6168H42.617H42.6171H42.6173H42.6175H42.6176H42.6178H42.618H42.6181H42.6183H42.6185H42.6186H42.6188C43.8623 19.4196 45.1061 19.42 46.3503 19.42C46.982 19.42 47.292 19.42 47.4478 19.265C47.598 19.1157 47.6051 18.8225 47.6189 18.2468L47.6203 18.19C47.6303 17.68 47.5103 17.52 46.9703 17.52C44.533 17.55 42.1069 17.5462 39.6794 17.5425C38.87 17.5412 38.0605 17.54 37.2503 17.54ZM33.0598 40.09H40.5398H40.5412C43.0307 40.09 45.5203 40.09 47.9998 40.1C48.0475 40.1 48.0951 40.1006 48.1426 40.1013H48.1427C48.2845 40.1031 48.425 40.105 48.5598 40.09C49.0998 40.03 49.4298 39.71 49.4498 39.18C49.4798 38.64 49.1498 38.32 48.6298 38.21C48.5178 38.186 48.4058 38.1876 48.2938 38.1892L48.267 38.1896L48.2213 38.19L48.2098 38.19H32.8398C32.6798 38.19 32.5098 38.19 32.3598 38.23C31.8798 38.37 31.6198 38.7 31.6498 39.21C31.6798 39.7 31.9698 39.98 32.4298 40.07C32.5873 40.1 32.7448 40.0963 32.9023 40.0925C32.9548 40.0913 33.0073 40.09 33.0598 40.09ZM38.7001 41.96H44.2801L44.3344 41.9598L44.3851 41.9594C44.5601 41.958 44.7351 41.9567 44.9101 41.99C45.4101 42.08 45.6901 42.38 45.7001 42.9C45.7001 43.38 45.4601 43.7 44.9902 43.8C44.7402 43.85 44.4801 43.86 44.2301 43.86H33.1401C33.1005 43.86 33.0603 43.8606 33.0197 43.8612H33.0195C32.8964 43.8631 32.7705 43.865 32.6502 43.85C32.0702 43.8 31.6701 43.54 31.6501 42.91C31.6301 42.33 32.0201 41.97 32.7001 41.97C34.2002 41.955 35.7002 41.9569 37.2003 41.9587C37.7002 41.9594 38.2002 41.96 38.7001 41.96ZM26.9199 38.19C25.3999 38.2 24.1399 39.47 24.1299 41C24.1199 42.58 25.3799 43.84 26.9499 43.83C28.4799 43.82 29.7499 42.57 29.7599 41.04C29.7699 39.51 28.4499 38.18 26.9199 38.19ZM25.9999 41.03C25.9999 40.53 26.4199 40.1 26.9199 40.09C27.4299 40.09 27.8499 40.5 27.8499 41.01C27.8499 41.52 27.4499 41.94 26.9399 41.95C26.4499 41.96 26.0099 41.53 25.9999 41.03ZM17.5395 17.54C17.8325 17.54 18.1255 17.5389 18.4188 17.5378H18.4188H18.4188H18.4189H18.4189H18.4189H18.4189H18.4189H18.419H18.419H18.419H18.419C19.0067 17.5356 19.5959 17.5333 20.1895 17.54C20.8795 17.55 21.2695 17.88 21.2895 18.44C21.3095 19.02 20.8995 19.41 20.1895 19.42C18.4295 19.43 16.6595 19.43 14.8995 19.42C14.1895 19.41 13.7795 19.02 13.7995 18.44C13.8195 17.88 14.2095 17.55 14.8995 17.54C15.4862 17.5333 16.0729 17.5356 16.6595 17.5378C16.9529 17.5389 17.2462 17.54 17.5395 17.54ZM20.23 26.95H17.52C17.2954 26.95 17.0703 26.9494 16.8446 26.9488H16.8444C16.1658 26.9469 15.4829 26.945 14.8 26.96C14.19 26.96 13.81 27.25 13.8 27.87C13.79 28.49 14.18 28.81 14.77 28.82C16.6 28.84 18.44 28.84 20.27 28.82C20.93 28.81 21.32 28.39 21.27 27.83C21.22 27.21 20.83 26.95 20.23 26.95ZM16.6003 51.34C16.6003 51.448 16.6041 51.556 16.6079 51.6637C16.6164 51.905 16.6248 52.1449 16.5903 52.38C16.5203 52.9 16.1903 53.23 15.6403 53.21C15.1003 53.19 14.7703 52.87 14.7403 52.33C14.7103 51.68 14.7103 51.03 14.7403 50.38C14.7703 49.85 15.0703 49.51 15.6203 49.49C16.1703 49.46 16.5003 49.77 16.5803 50.3C16.6124 50.5184 16.6074 50.7409 16.6023 50.9649C16.5995 51.0896 16.5967 51.2148 16.6003 51.34ZM52.2954 51.0315L52.2954 51.0321C52.2977 51.1408 52.2999 51.2498 52.2999 51.36C52.2999 51.4661 52.2977 51.5733 52.2955 51.6809L52.2955 51.6815C52.291 51.8981 52.2865 52.1163 52.2999 52.33C52.3399 52.88 52.6599 53.19 53.1999 53.21C53.7099 53.23 54.0599 52.95 54.1299 52.45C54.2399 51.72 54.2499 50.96 54.1299 50.23C54.0499 49.71 53.6699 49.44 53.1199 49.5C52.6099 49.56 52.3299 49.87 52.2999 50.38C52.2866 50.5996 52.291 50.8148 52.2954 51.0315ZM40.0855 51.6456V51.6458V51.6459C40.0918 51.8736 40.098 52.0994 40.07 52.33C40.02 52.86 39.71 53.19 39.17 53.21C38.62 53.23 38.26 52.91 38.21 52.39C38.15 51.7 38.15 50.99 38.21 50.3C38.26 49.78 38.61 49.46 39.17 49.49C39.72 49.51 40.01 49.85 40.07 50.37C40.0981 50.6017 40.0917 50.8333 40.0854 51.0615L40.0854 51.0617C40.0827 51.1585 40.08 51.2547 40.08 51.35C40.08 51.4491 40.0828 51.5472 40.0855 51.645V51.6452V51.6454V51.6456ZM49.488 51.6858C49.4842 51.5843 49.4804 51.4821 49.4804 51.38C49.4804 51.2696 49.4837 51.1593 49.4871 51.0493C49.4937 50.8304 49.5004 50.613 49.4804 50.4C49.4204 49.85 49.1204 49.48 48.5304 49.49C47.9404 49.5 47.6404 49.86 47.6104 50.42C47.5804 51.04 47.5804 51.67 47.6104 52.3C47.6304 52.84 47.9404 53.18 48.4804 53.21C49.0604 53.25 49.3904 52.9 49.4704 52.35C49.5049 52.1359 49.4965 51.9123 49.488 51.6858ZM19.4405 51.37C19.4405 51.265 19.4378 51.16 19.4351 51.055C19.4288 50.81 19.4225 50.565 19.4505 50.32C19.5005 49.81 19.8005 49.52 20.3105 49.49C20.8205 49.46 21.1905 49.71 21.2605 50.22C21.3705 50.98 21.3705 51.75 21.2505 52.51C21.1805 52.99 20.8205 53.22 20.3505 53.21C19.8505 53.2 19.5105 52.93 19.4505 52.41C19.4225 52.1723 19.4288 51.9296 19.4351 51.6855L19.4351 51.6855C19.4378 51.5805 19.4405 51.4752 19.4405 51.37ZM24.1371 51.0148V51.0149C24.1387 51.1071 24.1403 51.199 24.1403 51.29C24.1443 51.4424 24.1419 51.5931 24.1395 51.7429C24.1359 51.9667 24.1323 52.1884 24.1503 52.41C24.1903 52.92 24.5303 53.2 25.0303 53.21C25.5403 53.22 25.9103 52.96 25.9503 52.45C26.0103 51.73 26.0103 51.01 25.9603 50.29C25.9303 49.76 25.5603 49.47 25.0103 49.49C24.5003 49.52 24.1903 49.81 24.1503 50.32C24.1289 50.5489 24.133 50.783 24.1371 51.0148ZM30.6651 51.6955V51.6955C30.6714 51.9396 30.6777 52.1823 30.6497 52.42C30.5997 52.9 30.2897 53.17 29.8197 53.21C29.3197 53.25 28.9397 53.01 28.8597 52.5C28.7397 51.74 28.7497 50.97 28.8597 50.21C28.9297 49.71 29.2997 49.46 29.8097 49.49C30.3197 49.52 30.6197 49.82 30.6597 50.33C30.6847 50.6217 30.675 50.9133 30.6653 51.205C30.6633 51.2633 30.6614 51.3217 30.6597 51.38C30.6597 51.4852 30.6624 51.5904 30.6651 51.6953V51.6954V51.6955ZM35.3749 51.675C35.3722 51.57 35.3695 51.465 35.3695 51.36C35.3695 51.2644 35.3718 51.1688 35.374 51.0734L35.374 51.0732C35.3799 50.8194 35.3859 50.5671 35.3495 50.32C35.2995 49.85 35.0095 49.56 34.5395 49.51C34.0295 49.45 33.6395 49.69 33.5495 50.18C33.4095 50.96 33.4195 51.76 33.5495 52.54C33.6395 53.03 34.0395 53.27 34.5395 53.22C35.0095 53.17 35.3095 52.89 35.3595 52.41C35.3875 52.165 35.3812 51.92 35.3749 51.675ZM44.7779 51.6936V51.6936V51.6937C44.7864 51.935 44.7949 52.1749 44.7603 52.41C44.6903 52.9 44.3703 53.21 43.8603 53.21C43.3103 53.22 42.9603 52.9 42.9203 52.37C42.8703 51.7 42.8703 51.02 42.9203 50.35C42.9503 49.83 43.2803 49.49 43.8303 49.48C44.3803 49.47 44.7003 49.79 44.7703 50.31C44.797 50.5504 44.7881 50.7863 44.7792 51.0207L44.7791 51.0209C44.7747 51.1375 44.7703 51.2538 44.7703 51.37C44.7703 51.4779 44.7741 51.5859 44.7779 51.6936ZM10.0346 51.0236C10.0374 51.1217 10.0401 51.2204 10.0401 51.32C10.0301 51.65 10.0201 51.98 10.0501 52.3C10.0901 52.84 10.3801 53.17 10.9201 53.21C11.4601 53.25 11.8401 52.94 11.8901 52.42C11.9601 51.71 11.9601 50.98 11.8901 50.27C11.8301 49.76 11.4501 49.46 10.9001 49.5C10.3801 49.54 10.1001 49.85 10.0501 50.35C10.0222 50.5734 10.0284 50.7968 10.0346 51.0236Z" fill="url(#paint0_linear)"/>
<defs>
<linearGradient id="paint0_linear" x1="6.25977" y1="33.108" x2="58.8698" y2="33.108" gradientUnits="userSpaceOnUse">
<stop stop-color="#458FF6"/>
<stop offset="1" stop-color="#FD749B"/>
</linearGradient>
</defs>
</svg>
