<svg width="272" height="66" viewBox="0 0 272 66" fill="none" xmlns="http://www.w3.org/2000/svg">
<path d="M35.9 0V30.1H66C64.73 14.08 51.92 1.27 35.9 0Z" fill="#434B65"/>
<path d="M8.34 42.38C7.82 40.11 7.48 37.74 7.34 35.3H1C2.05 37.95 4.65 40.38 8.34 42.38Z" fill="url(#paint0_radial)"/>
<path d="M30.69 58.67C28.25 58.53 25.88 58.19 23.61 57.67C25.61 61.36 28.04 63.96 30.69 65.01V58.67Z" fill="url(#paint1_radial)"/>
<path d="M22.21 57.31C19.48 56.58 16.91 55.6 14.55 54.39C18.06 59.61 22.81 63.36 28.2 64.83C25.94 63.26 23.9 60.67 22.21 57.31Z" fill="url(#paint2_radial)"/>
<path d="M23.21 63.93C19.02 61.64 15.39 57.96 12.66 53.35C8.04 50.61 4.37 46.99 2.08 42.8C5.31 52.79 13.21 60.69 23.21 63.93Z" fill="url(#paint3_radial)"/>
<path d="M11.6 51.44C10.39 49.08 9.41 46.51 8.68 43.78C5.33 42.09 2.73 40.05 1.16 37.79C2.63 43.18 6.38 47.93 11.6 51.44Z" fill="url(#paint4_radial)"/>
<path d="M9.56 43.01C12.13 44.26 15.14 45.31 18.46 46.11C17.77 42.75 17.33 39.12 17.19 35.3H8.38C8.54 37.98 8.94 40.56 9.56 43.01Z" fill="url(#paint5_radial)"/>
<path d="M30.69 57.62V48.8C26.88 48.66 23.24 48.22 19.88 47.53C20.68 50.86 21.73 53.87 22.98 56.43C25.44 57.06 28.02 57.46 30.69 57.62Z" fill="url(#paint6_radial)"/>
<path d="M21.61 56.07C20.44 53.49 19.46 50.54 18.72 47.29C15.47 46.55 12.51 45.57 9.94 44.4C10.8 47.36 11.98 50.12 13.42 52.59C15.9 54.02 18.65 55.2 21.61 56.07Z" fill="url(#paint7_radial)"/>
<path d="M30.69 35.31H18.24C18.39 39.21 18.87 42.95 19.62 46.38C23.05 47.13 26.79 47.61 30.69 47.76V35.31Z" fill="url(#paint8_radial)"/>
<path d="M7.33 30.1C7.47 27.66 7.81 25.29 8.33 23.02C4.64 25.02 2.04 27.45 0.990002 30.1H7.33Z" fill="url(#paint9_radial)"/>
<path d="M14.56 11.01C16.92 9.8 19.49 8.82 22.22 8.09C23.91 4.74 25.95 2.14 28.21 0.57C22.82 2.04 18.07 5.79 14.56 11.01Z" fill="url(#paint10_radial)"/>
<path d="M2.07 22.62C4.36 18.43 8.04 14.8 12.65 12.07C15.39 7.45 19.01 3.78 23.2 1.49C13.21 4.72 5.31 12.62 2.07 22.62Z" fill="url(#paint11_radial)"/>
<path d="M30.69 0.41C28.05 1.46 25.62 4.06 23.61 7.75C25.88 7.23 28.25 6.89 30.69 6.75V0.41Z" fill="url(#paint12_radial)"/>
<path d="M21.61 9.34C18.65 10.2 15.89 11.38 13.42 12.82C11.98 15.3 10.8 18.05 9.94 21.01C12.52 19.84 15.47 18.86 18.72 18.12C19.46 14.88 20.44 11.92 21.61 9.34Z" fill="url(#paint13_radial)"/>
<path d="M8.38 30.1H17.2C17.34 26.29 17.78 22.65 18.47 19.29C15.14 20.09 12.13 21.14 9.57 22.39C8.94 24.85 8.54 27.43 8.38 30.1Z" fill="url(#paint14_radial)"/>
<path d="M30.69 17.65C26.79 17.8 23.05 18.28 19.62 19.03C18.87 22.46 18.39 26.2 18.24 30.1H30.69V17.65Z" fill="url(#paint15_radial)"/>
<path d="M30.69 7.79C28.02 7.95 25.44 8.35 22.99 8.97C21.74 11.54 20.69 14.55 19.89 17.87C23.25 17.18 26.88 16.74 30.7 16.6V7.79H30.69Z" fill="url(#paint16_radial)"/>
<path d="M8.68 21.62C9.41 18.89 10.39 16.32 11.6 13.96C6.38 17.47 2.63 22.22 1.16 27.61C2.74 25.35 5.33 23.31 8.68 21.62Z" fill="url(#paint17_radial)"/>
<path d="M59.26 35.31C59.12 37.75 58.78 40.12 58.26 42.39C61.95 40.39 64.55 37.96 65.6 35.31H59.26Z" fill="url(#paint18_radial)"/>
<path d="M57.91 43.79C57.18 46.52 56.2 49.09 54.99 51.45C60.21 47.94 63.96 43.19 65.43 37.8C63.85 40.06 61.26 42.1 57.91 43.79Z" fill="url(#paint19_radial)"/>
<path d="M64.52 42.79C62.23 46.98 58.55 50.61 53.94 53.34C51.2 57.96 47.58 61.63 43.39 63.92C53.38 60.69 61.28 52.79 64.52 42.79Z" fill="url(#paint20_radial)"/>
<path d="M52.04 54.4C49.68 55.61 47.11 56.59 44.38 57.32C42.69 60.67 40.65 63.27 38.39 64.84C43.77 63.37 48.52 59.62 52.04 54.4Z" fill="url(#paint21_radial)"/>
<path d="M42.98 57.66C40.71 58.18 38.34 58.52 35.9 58.66V65C38.54 63.95 40.97 61.35 42.98 57.66Z" fill="url(#paint22_radial)"/>
<path d="M35.9 57.62C38.57 57.46 41.15 57.06 43.6 56.44C44.85 53.87 45.9 50.86 46.7 47.54C43.34 48.23 39.71 48.67 35.89 48.81V57.62H35.9Z" fill="url(#paint23_radial)"/>
<path d="M35.9 47.76C39.8 47.61 43.54 47.13 46.97 46.38C47.72 42.95 48.2 39.21 48.35 35.31H35.9V47.76Z" fill="url(#paint24_radial)"/>
<path d="M56.66 44.39C54.08 45.56 51.13 46.54 47.88 47.28C47.14 50.53 46.16 53.49 44.99 56.06C47.95 55.2 50.71 54.02 53.18 52.58C54.62 50.1 55.79 47.35 56.66 44.39Z" fill="url(#paint25_radial)"/>
<path d="M58.21 35.31H49.39C49.25 39.12 48.81 42.76 48.12 46.12C51.45 45.32 54.46 44.27 57.02 43.02C57.65 40.56 58.05 37.98 58.21 35.31Z" fill="url(#paint26_radial)"/>
<path d="M35.9 7.79V16.61C39.71 16.75 43.35 17.19 46.71 17.88C45.91 14.55 44.86 11.54 43.61 8.98C41.15 8.35 38.57 7.95 35.9 7.79Z" fill="url(#paint27_radial)"/>
<path d="M35.9 6.74C38.34 6.88 40.71 7.22 42.98 7.74C40.98 4.05 38.55 1.45 35.9 0.400002V6.74Z" fill="url(#paint28_radial)"/>
<path d="M58.25 23.02C58.77 25.29 59.11 27.66 59.25 30.1H65.58C64.54 27.46 61.94 25.03 58.25 23.02Z" fill="url(#paint29_radial)"/>
<path d="M56.66 21.02C55.8 18.06 54.62 15.3 53.18 12.83C50.7 11.39 47.95 10.21 44.99 9.35001C46.16 11.93 47.14 14.88 47.88 18.13C51.12 18.87 54.08 19.85 56.66 21.02Z" fill="url(#paint30_radial)"/>
<path d="M44.38 8.09C47.11 8.82 49.68 9.8 52.04 11.01C48.53 5.79 43.78 2.04 38.39 0.57C40.65 2.15 42.69 4.74 44.38 8.09Z" fill="url(#paint31_radial)"/>
<path d="M35.9 30.1H48.35C48.2 26.2 47.72 22.46 46.97 19.03C43.54 18.28 39.8 17.8 35.9 17.65V30.1Z" fill="url(#paint32_radial)"/>
<path d="M43.38 1.48C47.57 3.77 51.2 7.45 53.93 12.06C58.55 14.8 62.22 18.42 64.51 22.61C61.28 12.62 53.38 4.72 43.38 1.48Z" fill="url(#paint33_radial)"/>
<path d="M65.43 27.61C63.96 22.23 60.21 17.47 54.99 13.96C56.2 16.32 57.18 18.89 57.91 21.62C61.26 23.31 63.85 25.35 65.43 27.61Z" fill="url(#paint34_radial)"/>
<path d="M57.03 22.4C54.46 21.15 51.45 20.1 48.13 19.3C48.82 22.66 49.26 26.29 49.4 30.11H58.22C58.05 27.43 57.65 24.85 57.03 22.4Z" fill="url(#paint35_radial)"/>
<path d="M92.8575 6.6665V19H90.2905V13.6875H84.859V19H82.292V6.6665H84.859V11.9025H90.2905V6.6665H92.8575Z" fill="#161821"/>
<path d="M102.776 14.3165L101.441 10.5425C101.362 10.3442 101.277 10.1118 101.186 9.8455C101.101 9.5735 101.016 9.28166 100.931 8.97C100.852 9.28733 100.767 9.582 100.676 9.854C100.591 10.126 100.509 10.3612 100.43 10.5595L99.1039 14.3165H102.776ZM107.051 19H105.079C104.858 19 104.677 18.949 104.535 18.847C104.399 18.7393 104.297 18.6033 104.229 18.439L103.396 16.0845H98.4749L97.6419 18.439C97.5909 18.5807 97.4918 18.711 97.3444 18.83C97.2028 18.9433 97.0243 19 96.8089 19H94.8199L99.6309 6.6665H102.24L107.051 19Z" fill="#161821"/>
<path d="M120.885 17.0705V21.193C120.885 21.4083 120.811 21.5812 120.664 21.7115C120.517 21.8418 120.324 21.907 120.086 21.907H118.548V19H109.011V6.6665H111.578V17.0705H116.601V6.6665H119.168V17.0705H120.885Z" fill="#161821"/>
<path d="M134.039 6.6665V19H131.472V11.6475C131.472 11.3415 131.481 11.0213 131.498 10.687C131.515 10.347 131.549 9.99 131.6 9.616C131.475 9.95033 131.342 10.262 131.2 10.551C131.059 10.84 130.923 11.0922 130.792 11.3075L126.517 18.218C126.46 18.3143 126.392 18.4078 126.313 18.4985C126.234 18.5892 126.146 18.6742 126.049 18.7535C125.959 18.8272 125.857 18.8867 125.743 18.932C125.636 18.9773 125.52 19 125.395 19H123.474V6.6665H126.041V14.019C126.041 14.325 126.032 14.648 126.015 14.988C125.998 15.3223 125.964 15.6765 125.913 16.0505C126.038 15.7162 126.171 15.4045 126.313 15.1155C126.455 14.8265 126.591 14.5743 126.721 14.359L130.996 7.44C131.053 7.34933 131.121 7.25866 131.2 7.168C131.28 7.07166 131.365 6.98666 131.455 6.913C131.552 6.83933 131.654 6.77983 131.761 6.7345C131.875 6.68916 131.994 6.6665 132.118 6.6665H134.039Z" fill="#161821"/>
<path d="M149.389 12.829C149.389 13.73 149.236 14.5658 148.93 15.3365C148.63 16.1072 148.202 16.773 147.647 17.334C147.097 17.895 146.434 18.337 145.658 18.66C144.881 18.9773 144.02 19.136 143.074 19.136C142.127 19.136 141.266 18.9773 140.49 18.66C139.713 18.337 139.048 17.895 138.492 17.334C137.937 16.773 137.506 16.1072 137.2 15.3365C136.9 14.5658 136.75 13.73 136.75 12.829C136.75 11.928 136.9 11.095 137.2 10.33C137.506 9.55933 137.937 8.8935 138.492 8.3325C139.048 7.7715 139.713 7.33233 140.49 7.015C141.266 6.692 142.127 6.5305 143.074 6.5305C144.02 6.5305 144.881 6.692 145.658 7.015C146.434 7.33233 147.097 7.77433 147.647 8.341C148.202 8.902 148.63 9.56783 148.93 10.3385C149.236 11.1035 149.389 11.9337 149.389 12.829ZM146.78 12.829C146.78 12.183 146.695 11.605 146.525 11.095C146.355 10.5793 146.108 10.143 145.785 9.786C145.468 9.42333 145.08 9.1485 144.621 8.9615C144.167 8.76883 143.652 8.6725 143.074 8.6725C142.496 8.6725 141.977 8.76883 141.518 8.9615C141.059 9.1485 140.668 9.42333 140.345 9.786C140.028 10.143 139.784 10.5793 139.614 11.095C139.444 11.605 139.359 12.183 139.359 12.829C139.359 13.4807 139.444 14.0643 139.614 14.58C139.784 15.09 140.028 15.5235 140.345 15.8805C140.668 16.2375 141.059 16.5123 141.518 16.705C141.977 16.892 142.496 16.9855 143.074 16.9855C143.652 16.9855 144.167 16.892 144.621 16.705C145.08 16.5123 145.468 16.2375 145.785 15.8805C146.108 15.5235 146.355 15.09 146.525 14.58C146.695 14.0643 146.78 13.4807 146.78 12.829Z" fill="#161821"/>
<path d="M162.667 6.6665V19H160.1V13.6875H154.669V19H152.102V6.6665H154.669V11.9025H160.1V6.6665H162.667Z" fill="#161821"/>
<path d="M172.586 14.3165L171.251 10.5425C171.172 10.3442 171.087 10.1118 170.996 9.8455C170.911 9.5735 170.826 9.28166 170.741 8.97C170.662 9.28733 170.577 9.582 170.486 9.854C170.401 10.126 170.319 10.3612 170.24 10.5595L168.914 14.3165H172.586ZM176.861 19H174.889C174.668 19 174.487 18.949 174.345 18.847C174.209 18.7393 174.107 18.6033 174.039 18.439L173.206 16.0845H168.285L167.452 18.439C167.401 18.5807 167.301 18.711 167.154 18.83C167.012 18.9433 166.834 19 166.619 19H164.63L169.441 6.6665H172.05L176.861 19Z" fill="#161821"/>
<path d="M189.344 19H186.777V8.596H183.7C183.615 10.126 183.498 11.4492 183.351 12.5655C183.204 13.6818 183.025 14.631 182.816 15.413C182.612 16.1893 182.376 16.8212 182.11 17.3085C181.849 17.7902 181.56 18.167 181.243 18.439C180.931 18.7053 180.594 18.8867 180.232 18.983C179.875 19.0793 179.498 19.1275 179.101 19.1275C178.653 19.1275 178.33 19.0878 178.132 19.0085C177.934 18.9292 177.835 18.813 177.835 18.66V17.0875H178.515C178.696 17.0875 178.883 17.0592 179.076 17.0025C179.274 16.9402 179.467 16.7985 179.654 16.5775C179.846 16.3508 180.03 16.0165 180.206 15.5745C180.387 15.1325 180.549 14.5262 180.691 13.7555C180.838 12.9792 180.963 12.0158 181.065 10.8655C181.172 9.7095 181.249 8.30983 181.294 6.6665H189.344V19Z" fill="#161821"/>
<path d="M197.188 17.045C197.591 17.045 197.925 16.9997 198.191 16.909C198.458 16.8183 198.67 16.6965 198.829 16.5435C198.988 16.3848 199.098 16.2035 199.16 15.9995C199.228 15.7955 199.262 15.5802 199.262 15.3535C199.262 15.0985 199.228 14.8662 199.16 14.6565C199.098 14.4468 198.988 14.2683 198.829 14.121C198.676 13.968 198.466 13.8518 198.2 13.7725C197.934 13.6932 197.596 13.6535 197.188 13.6535H195.335V17.045H197.188ZM197.188 11.69C198.01 11.69 198.713 11.7807 199.296 11.962C199.88 12.1433 200.353 12.3898 200.716 12.7015C201.084 13.0132 201.353 13.3758 201.523 13.7895C201.693 14.1975 201.778 14.6338 201.778 15.0985C201.778 15.6878 201.674 16.2233 201.464 16.705C201.26 17.181 200.962 17.589 200.571 17.929C200.18 18.269 199.699 18.5325 199.126 18.7195C198.56 18.9065 197.914 19 197.188 19H192.785V6.6665H195.335V11.69H197.188Z" fill="#161821"/>
<path d="M214.776 6.6665V19H212.209V13.6875H206.778V19H204.211V6.6665H206.778V11.9025H212.209V6.6665H214.776Z" fill="#161821"/>
<path d="M222.612 17.045C223.014 17.045 223.349 16.9997 223.615 16.909C223.881 16.8183 224.094 16.6965 224.252 16.5435C224.411 16.3848 224.522 16.2035 224.584 15.9995C224.652 15.7955 224.686 15.5802 224.686 15.3535C224.686 15.0985 224.652 14.8662 224.584 14.6565C224.522 14.4468 224.411 14.2683 224.252 14.121C224.099 13.968 223.89 13.8518 223.623 13.7725C223.357 13.6932 223.02 13.6535 222.612 13.6535H220.759V17.045H222.612ZM222.612 11.69C223.434 11.69 224.136 11.7807 224.72 11.962C225.304 12.1433 225.777 12.3898 226.139 12.7015C226.508 13.0132 226.777 13.3758 226.947 13.7895C227.117 14.1975 227.202 14.6338 227.202 15.0985C227.202 15.6878 227.097 16.2233 226.887 16.705C226.683 17.181 226.386 17.589 225.995 17.929C225.604 18.269 225.122 18.5325 224.55 18.7195C223.983 18.9065 223.337 19 222.612 19H218.209V6.6665H220.759V11.69H222.612ZM231.384 19H228.817V6.6665H231.384V19Z" fill="#161821"/>
<path d="M245.379 6.6665V19H242.812V11.6475C242.812 11.3415 242.821 11.0213 242.838 10.687C242.855 10.347 242.889 9.99 242.94 9.616C242.815 9.95033 242.682 10.262 242.54 10.551C242.399 10.84 242.263 11.0922 242.132 11.3075L237.857 18.218C237.8 18.3143 237.732 18.4078 237.653 18.4985C237.574 18.5892 237.486 18.6742 237.389 18.7535C237.299 18.8272 237.197 18.8867 237.083 18.932C236.976 18.9773 236.86 19 236.735 19H234.814V6.6665H237.381V14.019C237.381 14.325 237.372 14.648 237.355 14.988C237.338 15.3223 237.304 15.6765 237.253 16.0505C237.378 15.7162 237.511 15.4045 237.653 15.1155C237.795 14.8265 237.931 14.5743 238.061 14.359L242.336 7.44C242.393 7.34933 242.461 7.25866 242.54 7.168C242.62 7.07166 242.705 6.98666 242.795 6.913C242.892 6.83933 242.994 6.77983 243.101 6.7345C243.215 6.68916 243.334 6.6665 243.458 6.6665H245.379ZM240.228 4.822C240.432 4.822 240.6 4.805 240.73 4.771C240.866 4.73133 240.971 4.66333 241.044 4.567C241.124 4.47066 241.178 4.34316 241.206 4.1845C241.24 4.02016 241.257 3.8105 241.257 3.5555H242.642C242.807 3.5555 242.926 3.6235 242.999 3.7595C243.079 3.8955 243.118 4.04 243.118 4.193C243.118 4.48766 243.048 4.7455 242.906 4.9665C242.77 5.1875 242.574 5.3745 242.319 5.5275C242.064 5.67483 241.758 5.78533 241.401 5.859C241.05 5.93266 240.659 5.9695 240.228 5.9695C239.798 5.9695 239.404 5.93266 239.047 5.859C238.696 5.78533 238.392 5.67483 238.137 5.5275C237.882 5.3745 237.684 5.1875 237.542 4.9665C237.406 4.7455 237.338 4.48766 237.338 4.193C237.338 4.04 237.375 3.8955 237.449 3.7595C237.528 3.6235 237.65 3.5555 237.814 3.5555H239.2C239.2 3.8105 239.214 4.02016 239.242 4.1845C239.276 4.34316 239.33 4.47066 239.404 4.567C239.483 4.66333 239.588 4.73133 239.718 4.771C239.854 4.805 240.024 4.822 240.228 4.822Z" fill="#161821"/>
<path d="M90.061 37.0705V28.596H86.9925C86.9245 29.7407 86.8338 30.7607 86.7205 31.656C86.6072 32.5513 86.4768 33.3418 86.3295 34.0275C86.1822 34.7132 86.0178 35.3053 85.8365 35.804C85.6552 36.3027 85.4597 36.7248 85.25 37.0705H90.061ZM94.5065 37.0705V41.193C94.5065 41.4083 94.43 41.5812 94.277 41.7115C94.1297 41.8418 93.937 41.907 93.699 41.907H92.169V39H83.465V41.193C83.465 41.4083 83.3885 41.5812 83.2355 41.7115C83.0882 41.8418 82.8955 41.907 82.6575 41.907H81.119V37.0705H82.4875C82.6348 36.9855 82.785 36.8523 82.938 36.671C83.091 36.484 83.2383 36.2233 83.38 35.889C83.5273 35.549 83.6633 35.124 83.788 34.614C83.9183 34.0983 84.0345 33.4722 84.1365 32.7355C84.2442 31.9932 84.3348 31.1233 84.4085 30.126C84.4878 29.1287 84.5445 27.9755 84.5785 26.6665H92.628V37.0705H94.5065Z" fill="#161821"/>
<path d="M107.603 26.6665V39H105.036V31.6475C105.036 31.3415 105.045 31.0213 105.062 30.687C105.079 30.347 105.113 29.99 105.164 29.616C105.039 29.9503 104.906 30.262 104.764 30.551C104.622 30.84 104.486 31.0922 104.356 31.3075L100.081 38.218C100.024 38.3143 99.9558 38.4078 99.8765 38.4985C99.7972 38.5892 99.7093 38.6742 99.613 38.7535C99.5223 38.8272 99.4203 38.8867 99.307 38.932C99.1993 38.9773 99.0832 39 98.9585 39H97.0375V26.6665H99.6045V34.019C99.6045 34.325 99.596 34.648 99.579 34.988C99.562 35.3223 99.528 35.6765 99.477 36.0505C99.6017 35.7162 99.7348 35.4045 99.8765 35.1155C100.018 34.8265 100.154 34.5743 100.285 34.359L104.56 27.44C104.617 27.3493 104.685 27.2587 104.764 27.168C104.843 27.0717 104.928 26.9867 105.019 26.913C105.115 26.8393 105.217 26.7798 105.325 26.7345C105.438 26.6892 105.557 26.6665 105.682 26.6665H107.603Z" fill="#161821"/>
<path d="M117.521 34.3165L116.187 30.5425C116.108 30.3442 116.023 30.1118 115.932 29.8455C115.847 29.5735 115.762 29.2817 115.677 28.97C115.598 29.2873 115.513 29.582 115.422 29.854C115.337 30.126 115.255 30.3612 115.175 30.5595L113.849 34.3165H117.521ZM121.797 39H119.825C119.604 39 119.423 38.949 119.281 38.847C119.145 38.7393 119.043 38.6033 118.975 38.439L118.142 36.0845H113.22L112.387 38.439C112.336 38.5807 112.237 38.711 112.09 38.83C111.948 38.9433 111.77 39 111.554 39H109.565L114.376 26.6665H116.986L121.797 39Z" fill="#161821"/>
<path d="M131.44 28.596H126.323V39H123.756V26.6665H131.44V28.596Z" fill="#161821"/>
<path d="M144.402 26.6665V39H141.835V33.6875H136.404V39H133.837V26.6665H136.404V31.9025H141.835V26.6665H144.402Z" fill="#161821"/>
<path d="M159.752 32.829C159.752 33.73 159.599 34.5658 159.293 35.3365C158.993 36.1072 158.565 36.773 158.009 37.334C157.46 37.895 156.797 38.337 156.02 38.66C155.244 38.9773 154.383 39.136 153.436 39.136C152.49 39.136 151.629 38.9773 150.852 38.66C150.076 38.337 149.41 37.895 148.855 37.334C148.3 36.773 147.869 36.1072 147.563 35.3365C147.263 34.5658 147.112 33.73 147.112 32.829C147.112 31.928 147.263 31.095 147.563 30.33C147.869 29.5593 148.3 28.8935 148.855 28.3325C149.41 27.7715 150.076 27.3323 150.852 27.015C151.629 26.692 152.49 26.5305 153.436 26.5305C154.383 26.5305 155.244 26.692 156.02 27.015C156.797 27.3323 157.46 27.7743 158.009 28.341C158.565 28.902 158.993 29.5678 159.293 30.3385C159.599 31.1035 159.752 31.9337 159.752 32.829ZM157.142 32.829C157.142 32.183 157.057 31.605 156.887 31.095C156.717 30.5793 156.471 30.143 156.148 29.786C155.831 29.4233 155.442 29.1485 154.983 28.9615C154.53 28.7688 154.014 28.6725 153.436 28.6725C152.858 28.6725 152.34 28.7688 151.881 28.9615C151.422 29.1485 151.031 29.4233 150.708 29.786C150.391 30.143 150.147 30.5793 149.977 31.095C149.807 31.605 149.722 32.183 149.722 32.829C149.722 33.4807 149.807 34.0643 149.977 34.58C150.147 35.09 150.391 35.5235 150.708 35.8805C151.031 36.2375 151.422 36.5123 151.881 36.705C152.34 36.892 152.858 36.9855 153.436 36.9855C154.014 36.9855 154.53 36.892 154.983 36.705C155.442 36.5123 155.831 36.2375 156.148 35.8805C156.471 35.5235 156.717 35.09 156.887 34.58C157.057 34.0643 157.142 33.4807 157.142 32.829Z" fill="#161821"/>
<path d="M170.862 35.9655C171.004 35.9655 171.123 36.0165 171.219 36.1185L172.231 37.198C171.732 37.8327 171.112 38.3143 170.369 38.643C169.633 38.9717 168.754 39.136 167.734 39.136C166.811 39.136 165.98 38.9802 165.244 38.6685C164.507 38.3512 163.881 37.912 163.365 37.351C162.85 36.79 162.453 36.1242 162.175 35.3535C161.898 34.5828 161.759 33.7413 161.759 32.829C161.759 32.217 161.824 31.6362 161.954 31.0865C162.09 30.5312 162.286 30.0212 162.541 29.5565C162.796 29.0918 163.102 28.6725 163.459 28.2985C163.821 27.9245 164.229 27.6072 164.683 27.3465C165.136 27.0802 165.629 26.879 166.162 26.743C166.7 26.6013 167.272 26.5305 167.879 26.5305C168.332 26.5305 168.76 26.5702 169.162 26.6495C169.57 26.7288 169.95 26.8393 170.301 26.981C170.653 27.1227 170.976 27.2955 171.27 27.4995C171.571 27.6978 171.84 27.916 172.078 28.154L171.219 29.327C171.168 29.4007 171.103 29.4658 171.024 29.5225C170.944 29.5792 170.837 29.6075 170.701 29.6075C170.565 29.6075 170.426 29.5593 170.284 29.463C170.148 29.3667 169.978 29.259 169.774 29.14C169.576 29.021 169.324 28.9133 169.018 28.817C168.717 28.7207 168.335 28.6725 167.87 28.6725C167.355 28.6725 166.881 28.766 166.451 28.953C166.02 29.14 165.649 29.412 165.337 29.769C165.031 30.1203 164.793 30.5538 164.623 31.0695C164.453 31.5852 164.368 32.1717 164.368 32.829C164.368 33.492 164.459 34.0842 164.64 34.6055C164.827 35.1212 165.079 35.5575 165.397 35.9145C165.72 36.2715 166.094 36.5435 166.519 36.7305C166.949 36.9118 167.408 37.0025 167.896 37.0025C168.185 37.0025 168.445 36.9883 168.678 36.96C168.916 36.9317 169.134 36.8835 169.332 36.8155C169.536 36.7475 169.726 36.6597 169.902 36.552C170.083 36.4443 170.264 36.3083 170.446 36.144C170.508 36.093 170.573 36.0505 170.641 36.0165C170.709 35.9825 170.783 35.9655 170.862 35.9655Z" fill="#161821"/>
<path d="M183.25 28.7235H179.646V39H177.087V28.7235H173.483V26.6665H183.25V28.7235Z" fill="#161821"/>
<path d="M196.196 26.6665V39H193.629V31.6475C193.629 31.3415 193.637 31.0213 193.654 30.687C193.671 30.347 193.705 29.99 193.756 29.616C193.631 29.9503 193.498 30.262 193.357 30.551C193.215 30.84 193.079 31.0922 192.949 31.3075L188.673 38.218C188.616 38.3143 188.548 38.4078 188.469 38.4985C188.39 38.5892 188.302 38.6742 188.206 38.7535C188.115 38.8272 188.013 38.8867 187.9 38.932C187.792 38.9773 187.676 39 187.551 39H185.63V26.6665H188.197V34.019C188.197 34.325 188.189 34.648 188.172 34.988C188.155 35.3223 188.121 35.6765 188.07 36.0505C188.194 35.7162 188.327 35.4045 188.469 35.1155C188.611 34.8265 188.747 34.5743 188.877 34.359L193.153 27.44C193.209 27.3493 193.277 27.2587 193.357 27.168C193.436 27.0717 193.521 26.9867 193.612 26.913C193.708 26.8393 193.81 26.7798 193.918 26.7345C194.031 26.6892 194.15 26.6665 194.275 26.6665H196.196Z" fill="#161821"/>
<path d="M208.639 26.6665V39H206.072V34.1975C205.403 34.3562 204.763 34.4723 204.151 34.546C203.544 34.6197 202.978 34.6395 202.451 34.6055C201.924 34.5715 201.445 34.4752 201.014 34.3165C200.583 34.1578 200.215 33.9255 199.909 33.6195C199.609 33.3078 199.374 32.9168 199.204 32.4465C199.039 31.9762 198.957 31.4095 198.957 30.7465V26.6665H201.524V30.755C201.524 31.197 201.592 31.571 201.728 31.877C201.87 32.183 202.111 32.4097 202.451 32.557C202.796 32.7043 203.261 32.7695 203.845 32.7525C204.434 32.7355 205.176 32.6222 206.072 32.4125V26.6665H208.639Z" fill="#161821"/>
<path d="M214.633 28.664V31.8345H218.747V33.764H214.633V37.0025H219.92V39H212.066V26.6665H219.92V28.664H214.633Z" fill="#161821"/>
<path d="M230.827 35.9655C230.969 35.9655 231.088 36.0165 231.184 36.1185L232.196 37.198C231.697 37.8327 231.076 38.3143 230.334 38.643C229.597 38.9717 228.719 39.136 227.699 39.136C226.775 39.136 225.945 38.9802 225.209 38.6685C224.472 38.3512 223.846 37.912 223.33 37.351C222.814 36.79 222.418 36.1242 222.14 35.3535C221.862 34.5828 221.724 33.7413 221.724 32.829C221.724 32.217 221.789 31.6362 221.919 31.0865C222.055 30.5312 222.251 30.0212 222.506 29.5565C222.761 29.0918 223.067 28.6725 223.424 28.2985C223.786 27.9245 224.194 27.6072 224.648 27.3465C225.101 27.0802 225.594 26.879 226.127 26.743C226.665 26.6013 227.237 26.5305 227.844 26.5305C228.297 26.5305 228.725 26.5702 229.127 26.6495C229.535 26.7288 229.915 26.8393 230.266 26.981C230.617 27.1227 230.94 27.2955 231.235 27.4995C231.535 27.6978 231.805 27.916 232.043 28.154L231.184 29.327C231.133 29.4007 231.068 29.4658 230.989 29.5225C230.909 29.5792 230.802 29.6075 230.666 29.6075C230.53 29.6075 230.391 29.5593 230.249 29.463C230.113 29.3667 229.943 29.259 229.739 29.14C229.541 29.021 229.289 28.9133 228.983 28.817C228.682 28.7207 228.3 28.6725 227.835 28.6725C227.319 28.6725 226.846 28.766 226.416 28.953C225.985 29.14 225.614 29.412 225.302 29.769C224.996 30.1203 224.758 30.5538 224.588 31.0695C224.418 31.5852 224.333 32.1717 224.333 32.829C224.333 33.492 224.424 34.0842 224.605 34.6055C224.792 35.1212 225.044 35.5575 225.362 35.9145C225.685 36.2715 226.059 36.5435 226.484 36.7305C226.914 36.9118 227.373 37.0025 227.861 37.0025C228.15 37.0025 228.41 36.9883 228.643 36.96C228.881 36.9317 229.099 36.8835 229.297 36.8155C229.501 36.7475 229.691 36.6597 229.867 36.552C230.048 36.4443 230.229 36.3083 230.411 36.144C230.473 36.093 230.538 36.0505 230.606 36.0165C230.674 35.9825 230.748 35.9655 230.827 35.9655Z" fill="#161821"/>
<path d="M245.212 39H242.883C242.651 39 242.455 38.9405 242.297 38.8215C242.138 38.6968 241.991 38.5155 241.855 38.2775L239.5 34.2655C239.432 34.1465 239.358 34.0473 239.279 33.968C239.205 33.8887 239.123 33.8263 239.033 33.781C238.948 33.73 238.849 33.696 238.735 33.679C238.628 33.662 238.506 33.6535 238.37 33.6535H237.035V39H234.485V26.6665H237.035V31.758H238.149C238.37 31.758 238.562 31.7183 238.727 31.639C238.891 31.5597 239.044 31.4123 239.186 31.197L241.676 27.338C241.795 27.1397 241.94 26.9782 242.11 26.8535C242.28 26.7288 242.484 26.6665 242.722 26.6665H244.906L241.71 31.571C241.568 31.792 241.401 31.9762 241.209 32.1235C241.016 32.2652 240.804 32.3785 240.571 32.4635C240.934 32.5598 241.24 32.7185 241.489 32.9395C241.738 33.1548 241.974 33.458 242.195 33.849L245.212 39Z" fill="#161821"/>
<path d="M257.904 26.6665V39H255.337V31.6475C255.337 31.3415 255.345 31.0213 255.362 30.687C255.379 30.347 255.413 29.99 255.464 29.616C255.339 29.9503 255.206 30.262 255.065 30.551C254.923 30.84 254.787 31.0922 254.657 31.3075L250.381 38.218C250.324 38.3143 250.256 38.4078 250.177 38.4985C250.098 38.5892 250.01 38.6742 249.914 38.7535C249.823 38.8272 249.721 38.8867 249.608 38.932C249.5 38.9773 249.384 39 249.259 39H247.338V26.6665H249.905V34.019C249.905 34.325 249.897 34.648 249.88 34.988C249.863 35.3223 249.829 35.6765 249.778 36.0505C249.902 35.7162 250.035 35.4045 250.177 35.1155C250.319 34.8265 250.455 34.5743 250.585 34.359L254.861 27.44C254.917 27.3493 254.985 27.2587 255.065 27.168C255.144 27.0717 255.229 26.9867 255.32 26.913C255.416 26.8393 255.518 26.7798 255.626 26.7345C255.739 26.6892 255.858 26.6665 255.983 26.6665H257.904Z" fill="#161821"/>
<path d="M271.902 26.6665V39H269.335V31.6475C269.335 31.3415 269.344 31.0213 269.361 30.687C269.378 30.347 269.412 29.99 269.463 29.616C269.338 29.9503 269.205 30.262 269.063 30.551C268.921 30.84 268.785 31.0922 268.655 31.3075L264.38 38.218C264.323 38.3143 264.255 38.4078 264.176 38.4985C264.096 38.5892 264.008 38.6742 263.912 38.7535C263.821 38.8272 263.719 38.8867 263.606 38.932C263.498 38.9773 263.382 39 263.258 39H261.337V26.6665H263.904V34.019C263.904 34.325 263.895 34.648 263.878 34.988C263.861 35.3223 263.827 35.6765 263.776 36.0505C263.901 35.7162 264.034 35.4045 264.176 35.1155C264.317 34.8265 264.453 34.5743 264.584 34.359L268.859 27.44C268.916 27.3493 268.984 27.2587 269.063 27.168C269.142 27.0717 269.227 26.9867 269.318 26.913C269.414 26.8393 269.516 26.7798 269.624 26.7345C269.737 26.6892 269.856 26.6665 269.981 26.6665H271.902ZM266.751 24.822C266.955 24.822 267.122 24.805 267.253 24.771C267.389 24.7313 267.493 24.6633 267.567 24.567C267.646 24.4707 267.7 24.3432 267.729 24.1845C267.763 24.0202 267.78 23.8105 267.78 23.5555H269.165C269.329 23.5555 269.448 23.6235 269.522 23.7595C269.601 23.8955 269.641 24.04 269.641 24.193C269.641 24.4877 269.57 24.7455 269.429 24.9665C269.293 25.1875 269.097 25.3745 268.842 25.5275C268.587 25.6748 268.281 25.7853 267.924 25.859C267.573 25.9327 267.182 25.9695 266.751 25.9695C266.32 25.9695 265.927 25.9327 265.57 25.859C265.218 25.7853 264.915 25.6748 264.66 25.5275C264.405 25.3745 264.207 25.1875 264.065 24.9665C263.929 24.7455 263.861 24.4877 263.861 24.193C263.861 24.04 263.898 23.8955 263.972 23.7595C264.051 23.6235 264.173 23.5555 264.337 23.5555H265.723C265.723 23.8105 265.737 24.0202 265.765 24.1845C265.799 24.3432 265.853 24.4707 265.927 24.567C266.006 24.6633 266.111 24.7313 266.241 24.771C266.377 24.805 266.547 24.822 266.751 24.822Z" fill="#161821"/>
<path d="M94.1665 57.0705V61.193C94.1665 61.4083 94.0928 61.5812 93.9455 61.7115C93.7982 61.8418 93.6055 61.907 93.3675 61.907H91.829V59H82.292V46.6665H84.859V57.0705H89.8825V46.6665H92.4495V57.0705H94.1665Z" fill="#161821"/>
<path d="M99.3223 48.664V51.8345H103.436V53.764H99.3223V57.0025H104.609V59H96.7553V46.6665H104.609V48.664H99.3223Z" fill="#161821"/>
<path d="M117.933 46.6665V59H115.366V53.6875H109.934V59H107.367V46.6665H109.934V51.9025H115.366V46.6665H117.933Z" fill="#161821"/>
<path d="M130.095 48.7235H126.491V59H123.932V48.7235H120.328V46.6665H130.095V48.7235Z" fill="#161821"/>
<path d="M136.64 52.8035C137.439 52.8035 138.023 52.6108 138.391 52.2255C138.765 51.8402 138.952 51.3132 138.952 50.6445C138.952 50.3385 138.904 50.0608 138.808 49.8115C138.717 49.5565 138.575 49.3412 138.383 49.1655C138.196 48.9842 137.958 48.8453 137.669 48.749C137.38 48.6527 137.037 48.6045 136.64 48.6045H135.025V52.8035H136.64ZM136.64 46.6665C137.485 46.6665 138.213 46.7657 138.825 46.964C139.442 47.1623 139.95 47.44 140.346 47.797C140.743 48.1483 141.035 48.5677 141.222 49.055C141.414 49.5423 141.511 50.0722 141.511 50.6445C141.511 51.2508 141.412 51.8062 141.213 52.3105C141.015 52.8148 140.715 53.2483 140.312 53.611C139.91 53.9737 139.403 54.257 138.791 54.461C138.179 54.6593 137.462 54.7585 136.64 54.7585H135.025V59H132.475V46.6665H136.64Z" fill="#161821"/>
<defs>
<radialGradient id="paint0_radial" cx="0" cy="0" r="1" gradientUnits="userSpaceOnUse" gradientTransform="translate(30.8589 34.839) scale(34.38)">
<stop stop-color="#458FF6"/>
<stop offset="0.4174" stop-color="#458EF4"/>
<stop offset="0.5678" stop-color="#458BED"/>
<stop offset="0.6749" stop-color="#4585E2"/>
<stop offset="0.7616" stop-color="#447DD1"/>
<stop offset="0.8359" stop-color="#4473BB"/>
<stop offset="0.9015" stop-color="#44669F"/>
<stop offset="0.9595" stop-color="#435880"/>
<stop offset="1" stop-color="#434B65"/>
</radialGradient>
<radialGradient id="paint1_radial" cx="0" cy="0" r="1" gradientUnits="userSpaceOnUse" gradientTransform="translate(30.8589 34.839) scale(34.38)">
<stop stop-color="#458FF6"/>
<stop offset="0.4174" stop-color="#458EF4"/>
<stop offset="0.5678" stop-color="#458BED"/>
<stop offset="0.6749" stop-color="#4585E2"/>
<stop offset="0.7616" stop-color="#447DD1"/>
<stop offset="0.8359" stop-color="#4473BB"/>
<stop offset="0.9015" stop-color="#44669F"/>
<stop offset="0.9595" stop-color="#435880"/>
<stop offset="1" stop-color="#434B65"/>
</radialGradient>
<radialGradient id="paint2_radial" cx="0" cy="0" r="1" gradientUnits="userSpaceOnUse" gradientTransform="translate(30.8589 34.839) scale(34.38)">
<stop stop-color="#458FF6"/>
<stop offset="0.4174" stop-color="#458EF4"/>
<stop offset="0.5678" stop-color="#458BED"/>
<stop offset="0.6749" stop-color="#4585E2"/>
<stop offset="0.7616" stop-color="#447DD1"/>
<stop offset="0.8359" stop-color="#4473BB"/>
<stop offset="0.9015" stop-color="#44669F"/>
<stop offset="0.9595" stop-color="#435880"/>
<stop offset="1" stop-color="#434B65"/>
</radialGradient>
<radialGradient id="paint3_radial" cx="0" cy="0" r="1" gradientUnits="userSpaceOnUse" gradientTransform="translate(30.8589 34.839) scale(34.38)">
<stop stop-color="#458FF6"/>
<stop offset="0.4174" stop-color="#458EF4"/>
<stop offset="0.5678" stop-color="#458BED"/>
<stop offset="0.6749" stop-color="#4585E2"/>
<stop offset="0.7616" stop-color="#447DD1"/>
<stop offset="0.8359" stop-color="#4473BB"/>
<stop offset="0.9015" stop-color="#44669F"/>
<stop offset="0.9595" stop-color="#435880"/>
<stop offset="1" stop-color="#434B65"/>
</radialGradient>
<radialGradient id="paint4_radial" cx="0" cy="0" r="1" gradientUnits="userSpaceOnUse" gradientTransform="translate(30.8589 34.839) scale(34.38)">
<stop stop-color="#458FF6"/>
<stop offset="0.4174" stop-color="#458EF4"/>
<stop offset="0.5678" stop-color="#458BED"/>
<stop offset="0.6749" stop-color="#4585E2"/>
<stop offset="0.7616" stop-color="#447DD1"/>
<stop offset="0.8359" stop-color="#4473BB"/>
<stop offset="0.9015" stop-color="#44669F"/>
<stop offset="0.9595" stop-color="#435880"/>
<stop offset="1" stop-color="#434B65"/>
</radialGradient>
<radialGradient id="paint5_radial" cx="0" cy="0" r="1" gradientUnits="userSpaceOnUse" gradientTransform="translate(30.8589 34.839) scale(34.38)">
<stop stop-color="#458FF6"/>
<stop offset="0.4174" stop-color="#458EF4"/>
<stop offset="0.5678" stop-color="#458BED"/>
<stop offset="0.6749" stop-color="#4585E2"/>
<stop offset="0.7616" stop-color="#447DD1"/>
<stop offset="0.8359" stop-color="#4473BB"/>
<stop offset="0.9015" stop-color="#44669F"/>
<stop offset="0.9595" stop-color="#435880"/>
<stop offset="1" stop-color="#434B65"/>
</radialGradient>
<radialGradient id="paint6_radial" cx="0" cy="0" r="1" gradientUnits="userSpaceOnUse" gradientTransform="translate(30.8589 34.839) scale(34.38)">
<stop stop-color="#458FF6"/>
<stop offset="0.4174" stop-color="#458EF4"/>
<stop offset="0.5678" stop-color="#458BED"/>
<stop offset="0.6749" stop-color="#4585E2"/>
<stop offset="0.7616" stop-color="#447DD1"/>
<stop offset="0.8359" stop-color="#4473BB"/>
<stop offset="0.9015" stop-color="#44669F"/>
<stop offset="0.9595" stop-color="#435880"/>
<stop offset="1" stop-color="#434B65"/>
</radialGradient>
<radialGradient id="paint7_radial" cx="0" cy="0" r="1" gradientUnits="userSpaceOnUse" gradientTransform="translate(30.8589 34.839) scale(34.38)">
<stop stop-color="#458FF6"/>
<stop offset="0.4174" stop-color="#458EF4"/>
<stop offset="0.5678" stop-color="#458BED"/>
<stop offset="0.6749" stop-color="#4585E2"/>
<stop offset="0.7616" stop-color="#447DD1"/>
<stop offset="0.8359" stop-color="#4473BB"/>
<stop offset="0.9015" stop-color="#44669F"/>
<stop offset="0.9595" stop-color="#435880"/>
<stop offset="1" stop-color="#434B65"/>
</radialGradient>
<radialGradient id="paint8_radial" cx="0" cy="0" r="1" gradientUnits="userSpaceOnUse" gradientTransform="translate(30.8589 34.839) scale(34.38)">
<stop stop-color="#458FF6"/>
<stop offset="0.4174" stop-color="#458EF4"/>
<stop offset="0.5678" stop-color="#458BED"/>
<stop offset="0.6749" stop-color="#4585E2"/>
<stop offset="0.7616" stop-color="#447DD1"/>
<stop offset="0.8359" stop-color="#4473BB"/>
<stop offset="0.9015" stop-color="#44669F"/>
<stop offset="0.9595" stop-color="#435880"/>
<stop offset="1" stop-color="#434B65"/>
</radialGradient>
<radialGradient id="paint9_radial" cx="0" cy="0" r="1" gradientUnits="userSpaceOnUse" gradientTransform="translate(29.9328 29.7457) scale(31.7744)">
<stop stop-color="#7D7987"/>
<stop offset="0.5017" stop-color="#7B7886"/>
<stop offset="0.6824" stop-color="#747282"/>
<stop offset="0.8113" stop-color="#69697B"/>
<stop offset="0.9147" stop-color="#585B71"/>
<stop offset="1" stop-color="#434B65"/>
</radialGradient>
<radialGradient id="paint10_radial" cx="0" cy="0" r="1" gradientUnits="userSpaceOnUse" gradientTransform="translate(29.9328 29.7457) scale(31.7744)">
<stop stop-color="#7D7987"/>
<stop offset="0.5017" stop-color="#7B7886"/>
<stop offset="0.6824" stop-color="#747282"/>
<stop offset="0.8113" stop-color="#69697B"/>
<stop offset="0.9147" stop-color="#585B71"/>
<stop offset="1" stop-color="#434B65"/>
</radialGradient>
<radialGradient id="paint11_radial" cx="0" cy="0" r="1" gradientUnits="userSpaceOnUse" gradientTransform="translate(29.9328 29.7457) scale(31.7744)">
<stop stop-color="#7D7987"/>
<stop offset="0.5017" stop-color="#7B7886"/>
<stop offset="0.6824" stop-color="#747282"/>
<stop offset="0.8113" stop-color="#69697B"/>
<stop offset="0.9147" stop-color="#585B71"/>
<stop offset="1" stop-color="#434B65"/>
</radialGradient>
<radialGradient id="paint12_radial" cx="0" cy="0" r="1" gradientUnits="userSpaceOnUse" gradientTransform="translate(29.9328 29.7457) scale(31.7744)">
<stop stop-color="#7D7987"/>
<stop offset="0.5017" stop-color="#7B7886"/>
<stop offset="0.6824" stop-color="#747282"/>
<stop offset="0.8113" stop-color="#69697B"/>
<stop offset="0.9147" stop-color="#585B71"/>
<stop offset="1" stop-color="#434B65"/>
</radialGradient>
<radialGradient id="paint13_radial" cx="0" cy="0" r="1" gradientUnits="userSpaceOnUse" gradientTransform="translate(29.9328 29.7457) scale(31.7744)">
<stop stop-color="#7D7987"/>
<stop offset="0.5017" stop-color="#7B7886"/>
<stop offset="0.6824" stop-color="#747282"/>
<stop offset="0.8113" stop-color="#69697B"/>
<stop offset="0.9147" stop-color="#585B71"/>
<stop offset="1" stop-color="#434B65"/>
</radialGradient>
<radialGradient id="paint14_radial" cx="0" cy="0" r="1" gradientUnits="userSpaceOnUse" gradientTransform="translate(29.9328 29.7457) scale(31.7744)">
<stop stop-color="#7D7987"/>
<stop offset="0.5017" stop-color="#7B7886"/>
<stop offset="0.6824" stop-color="#747282"/>
<stop offset="0.8113" stop-color="#69697B"/>
<stop offset="0.9147" stop-color="#585B71"/>
<stop offset="1" stop-color="#434B65"/>
</radialGradient>
<radialGradient id="paint15_radial" cx="0" cy="0" r="1" gradientUnits="userSpaceOnUse" gradientTransform="translate(29.9328 29.7457) scale(31.7744)">
<stop stop-color="#7D7987"/>
<stop offset="0.5017" stop-color="#7B7886"/>
<stop offset="0.6824" stop-color="#747282"/>
<stop offset="0.8113" stop-color="#69697B"/>
<stop offset="0.9147" stop-color="#585B71"/>
<stop offset="1" stop-color="#434B65"/>
</radialGradient>
<radialGradient id="paint16_radial" cx="0" cy="0" r="1" gradientUnits="userSpaceOnUse" gradientTransform="translate(29.9328 29.7457) scale(31.7744)">
<stop stop-color="#7D7987"/>
<stop offset="0.5017" stop-color="#7B7886"/>
<stop offset="0.6824" stop-color="#747282"/>
<stop offset="0.8113" stop-color="#69697B"/>
<stop offset="0.9147" stop-color="#585B71"/>
<stop offset="1" stop-color="#434B65"/>
</radialGradient>
<radialGradient id="paint17_radial" cx="0" cy="0" r="1" gradientUnits="userSpaceOnUse" gradientTransform="translate(29.9328 29.7457) scale(31.7744)">
<stop stop-color="#7D7987"/>
<stop offset="0.5017" stop-color="#7B7886"/>
<stop offset="0.6824" stop-color="#747282"/>
<stop offset="0.8113" stop-color="#69697B"/>
<stop offset="0.9147" stop-color="#585B71"/>
<stop offset="1" stop-color="#434B65"/>
</radialGradient>
<radialGradient id="paint18_radial" cx="0" cy="0" r="1" gradientUnits="userSpaceOnUse" gradientTransform="translate(36.0101 35.3599) scale(29.0432)">
<stop stop-color="#FD749B"/>
<stop offset="0.5353" stop-color="#FD729B"/>
<stop offset="0.7282" stop-color="#FC6B99"/>
<stop offset="0.8651" stop-color="#FB6097"/>
<stop offset="0.9756" stop-color="#F94F93"/>
<stop offset="1" stop-color="#F84A92"/>
</radialGradient>
<radialGradient id="paint19_radial" cx="0" cy="0" r="1" gradientUnits="userSpaceOnUse" gradientTransform="translate(36.0101 35.3599) scale(29.0432)">
<stop stop-color="#FD749B"/>
<stop offset="0.5353" stop-color="#FD729B"/>
<stop offset="0.7282" stop-color="#FC6B99"/>
<stop offset="0.8651" stop-color="#FB6097"/>
<stop offset="0.9756" stop-color="#F94F93"/>
<stop offset="1" stop-color="#F84A92"/>
</radialGradient>
<radialGradient id="paint20_radial" cx="0" cy="0" r="1" gradientUnits="userSpaceOnUse" gradientTransform="translate(36.0101 35.3599) scale(29.0432)">
<stop stop-color="#FD749B"/>
<stop offset="0.5353" stop-color="#FD729B"/>
<stop offset="0.7282" stop-color="#FC6B99"/>
<stop offset="0.8651" stop-color="#FB6097"/>
<stop offset="0.9756" stop-color="#F94F93"/>
<stop offset="1" stop-color="#F84A92"/>
</radialGradient>
<radialGradient id="paint21_radial" cx="0" cy="0" r="1" gradientUnits="userSpaceOnUse" gradientTransform="translate(36.0101 35.3599) scale(29.0432)">
<stop stop-color="#FD749B"/>
<stop offset="0.5353" stop-color="#FD729B"/>
<stop offset="0.7282" stop-color="#FC6B99"/>
<stop offset="0.8651" stop-color="#FB6097"/>
<stop offset="0.9756" stop-color="#F94F93"/>
<stop offset="1" stop-color="#F84A92"/>
</radialGradient>
<radialGradient id="paint22_radial" cx="0" cy="0" r="1" gradientUnits="userSpaceOnUse" gradientTransform="translate(36.0101 35.3599) scale(29.0432)">
<stop stop-color="#FD749B"/>
<stop offset="0.5353" stop-color="#FD729B"/>
<stop offset="0.7282" stop-color="#FC6B99"/>
<stop offset="0.8651" stop-color="#FB6097"/>
<stop offset="0.9756" stop-color="#F94F93"/>
<stop offset="1" stop-color="#F84A92"/>
</radialGradient>
<radialGradient id="paint23_radial" cx="0" cy="0" r="1" gradientUnits="userSpaceOnUse" gradientTransform="translate(36.0101 35.3599) scale(29.0432)">
<stop stop-color="#FD749B"/>
<stop offset="0.5353" stop-color="#FD729B"/>
<stop offset="0.7282" stop-color="#FC6B99"/>
<stop offset="0.8651" stop-color="#FB6097"/>
<stop offset="0.9756" stop-color="#F94F93"/>
<stop offset="1" stop-color="#F84A92"/>
</radialGradient>
<radialGradient id="paint24_radial" cx="0" cy="0" r="1" gradientUnits="userSpaceOnUse" gradientTransform="translate(36.0101 35.3599) scale(29.0432)">
<stop stop-color="#FD749B"/>
<stop offset="0.5353" stop-color="#FD729B"/>
<stop offset="0.7282" stop-color="#FC6B99"/>
<stop offset="0.8651" stop-color="#FB6097"/>
<stop offset="0.9756" stop-color="#F94F93"/>
<stop offset="1" stop-color="#F84A92"/>
</radialGradient>
<radialGradient id="paint25_radial" cx="0" cy="0" r="1" gradientUnits="userSpaceOnUse" gradientTransform="translate(36.0101 35.3599) scale(29.0432)">
<stop stop-color="#FD749B"/>
<stop offset="0.5353" stop-color="#FD729B"/>
<stop offset="0.7282" stop-color="#FC6B99"/>
<stop offset="0.8651" stop-color="#FB6097"/>
<stop offset="0.9756" stop-color="#F94F93"/>
<stop offset="1" stop-color="#F84A92"/>
</radialGradient>
<radialGradient id="paint26_radial" cx="0" cy="0" r="1" gradientUnits="userSpaceOnUse" gradientTransform="translate(36.0101 35.3599) scale(29.0432)">
<stop stop-color="#FD749B"/>
<stop offset="0.5353" stop-color="#FD729B"/>
<stop offset="0.7282" stop-color="#FC6B99"/>
<stop offset="0.8651" stop-color="#FB6097"/>
<stop offset="0.9756" stop-color="#F94F93"/>
<stop offset="1" stop-color="#F84A92"/>
</radialGradient>
<radialGradient id="paint27_radial" cx="0" cy="0" r="1" gradientUnits="userSpaceOnUse" gradientTransform="translate(36.531 29.2826) scale(28.4893)">
<stop stop-color="white"/>
<stop offset="0.5256" stop-color="#FDFDFD"/>
<stop offset="0.715" stop-color="#F6F7F7"/>
<stop offset="0.8499" stop-color="#EBEBEC"/>
<stop offset="0.9583" stop-color="#DADBDC"/>
<stop offset="1" stop-color="#D1D3D4"/>
</radialGradient>
<radialGradient id="paint28_radial" cx="0" cy="0" r="1" gradientUnits="userSpaceOnUse" gradientTransform="translate(36.531 29.2826) scale(28.4893)">
<stop stop-color="white"/>
<stop offset="0.5256" stop-color="#FDFDFD"/>
<stop offset="0.715" stop-color="#F6F7F7"/>
<stop offset="0.8499" stop-color="#EBEBEC"/>
<stop offset="0.9583" stop-color="#DADBDC"/>
<stop offset="1" stop-color="#D1D3D4"/>
</radialGradient>
<radialGradient id="paint29_radial" cx="0" cy="0" r="1" gradientUnits="userSpaceOnUse" gradientTransform="translate(36.531 29.2826) scale(28.4893)">
<stop stop-color="white"/>
<stop offset="0.5256" stop-color="#FDFDFD"/>
<stop offset="0.715" stop-color="#F6F7F7"/>
<stop offset="0.8499" stop-color="#EBEBEC"/>
<stop offset="0.9583" stop-color="#DADBDC"/>
<stop offset="1" stop-color="#D1D3D4"/>
</radialGradient>
<radialGradient id="paint30_radial" cx="0" cy="0" r="1" gradientUnits="userSpaceOnUse" gradientTransform="translate(36.531 29.2826) scale(28.4893)">
<stop stop-color="white"/>
<stop offset="0.5256" stop-color="#FDFDFD"/>
<stop offset="0.715" stop-color="#F6F7F7"/>
<stop offset="0.8499" stop-color="#EBEBEC"/>
<stop offset="0.9583" stop-color="#DADBDC"/>
<stop offset="1" stop-color="#D1D3D4"/>
</radialGradient>
<radialGradient id="paint31_radial" cx="0" cy="0" r="1" gradientUnits="userSpaceOnUse" gradientTransform="translate(36.531 29.2826) scale(28.4893)">
<stop stop-color="white"/>
<stop offset="0.5256" stop-color="#FDFDFD"/>
<stop offset="0.715" stop-color="#F6F7F7"/>
<stop offset="0.8499" stop-color="#EBEBEC"/>
<stop offset="0.9583" stop-color="#DADBDC"/>
<stop offset="1" stop-color="#D1D3D4"/>
</radialGradient>
<radialGradient id="paint32_radial" cx="0" cy="0" r="1" gradientUnits="userSpaceOnUse" gradientTransform="translate(36.531 29.2826) scale(28.4893)">
<stop stop-color="white"/>
<stop offset="0.5256" stop-color="#FDFDFD"/>
<stop offset="0.715" stop-color="#F6F7F7"/>
<stop offset="0.8499" stop-color="#EBEBEC"/>
<stop offset="0.9583" stop-color="#DADBDC"/>
<stop offset="1" stop-color="#D1D3D4"/>
</radialGradient>
<radialGradient id="paint33_radial" cx="0" cy="0" r="1" gradientUnits="userSpaceOnUse" gradientTransform="translate(36.531 29.2826) scale(28.4893)">
<stop stop-color="white"/>
<stop offset="0.5256" stop-color="#FDFDFD"/>
<stop offset="0.715" stop-color="#F6F7F7"/>
<stop offset="0.8499" stop-color="#EBEBEC"/>
<stop offset="0.9583" stop-color="#DADBDC"/>
<stop offset="1" stop-color="#D1D3D4"/>
</radialGradient>
<radialGradient id="paint34_radial" cx="0" cy="0" r="1" gradientUnits="userSpaceOnUse" gradientTransform="translate(36.531 29.2826) scale(28.4893)">
<stop stop-color="white"/>
<stop offset="0.5256" stop-color="#FDFDFD"/>
<stop offset="0.715" stop-color="#F6F7F7"/>
<stop offset="0.8499" stop-color="#EBEBEC"/>
<stop offset="0.9583" stop-color="#DADBDC"/>
<stop offset="1" stop-color="#D1D3D4"/>
</radialGradient>
<radialGradient id="paint35_radial" cx="0" cy="0" r="1" gradientUnits="userSpaceOnUse" gradientTransform="translate(36.531 29.2826) scale(28.4893)">
<stop stop-color="white"/>
<stop offset="0.5256" stop-color="#FDFDFD"/>
<stop offset="0.715" stop-color="#F6F7F7"/>
<stop offset="0.8499" stop-color="#EBEBEC"/>
<stop offset="0.9583" stop-color="#DADBDC"/>
<stop offset="1" stop-color="#D1D3D4"/>
</radialGradient>
</defs>
</svg>
