<svg width="25" height="25" viewBox="0 0 25 25" fill="none" xmlns="http://www.w3.org/2000/svg">
<path d="M3.83001 10.8697C3.83001 7.16969 6.60001 4.17969 10.27 3.83969C13.78 3.51969 17.06 6.05969 17.68 9.59969C18.01 11.4797 17.61 13.1997 16.54 14.7597C16.4 14.9597 16.42 15.0497 16.58 15.2197C17.99 16.6097 19.38 18.0197 20.79 19.4197C21.09 19.7197 21.25 20.0597 21.14 20.4797C20.95 21.1597 20.12 21.3997 19.58 20.9297C19.27 20.6597 18.99 20.3497 18.7 20.0597C17.54 18.8997 16.37 17.7397 15.21 16.5697C15.07 16.4297 14.99 16.3997 14.8 16.5297C10.53 19.4597 4.80001 17.0397 3.92001 11.9297C3.85001 11.5497 3.81001 11.1797 3.83001 10.8697ZM5.76001 10.8297C5.77001 13.6397 8.01001 15.8697 10.82 15.8597C13.62 15.8597 15.86 13.5997 15.86 10.7897C15.85 7.97969 13.61 5.74969 10.8 5.75969C7.98001 5.76969 5.75001 8.00969 5.76001 10.8297Z" fill="url(#paint0_linear)"/>
<linearGradient id="paint0_linear" x1="3.82486" y1="12.6861" x2="21.1748" y2="12.6861" gradientUnits="userSpaceOnUse">
<stop stop-color="#458FF6"/>
<stop offset="1" stop-color="#FD749B"/>
</linearGradient>
</svg>
