<svg width="66" height="65" viewBox="0 0 66 65" fill="none" xmlns="http://www.w3.org/2000/svg">
<path d="M32.5802 57.7599C24.3202 57.7599 16.0602 57.7599 7.8002 57.7599C5.7102 57.7599 4.3102 56.7099 3.8602 54.82C3.6202 53.82 3.8502 52.8899 4.3502 52.0099C7.3302 46.7799 10.3002 41.5499 13.2802 36.3199C18.5802 27.0099 23.8702 17.6999 29.1702 8.37995C30.3302 6.33995 32.3102 5.61995 34.2202 6.53995C34.9602 6.89995 35.4802 7.47995 35.8802 8.17995C43.6102 21.7999 51.3602 35.4199 59.1002 49.0299C59.6602 50.02 60.1902 51.0299 60.7902 52C62.3802 54.5299 60.5502 57.82 57.4302 57.79C49.1502 57.72 40.8602 57.7599 32.5802 57.7599ZM32.5802 55.3699C40.7302 55.3699 48.8702 55.3699 57.0202 55.3699C57.3002 55.3699 57.5802 55.38 57.8602 55.34C58.8002 55.2 59.2302 54.3999 58.8602 53.5299C58.7802 53.34 58.6702 53.16 58.5602 52.9799C52.1602 41.7 45.7502 30.4199 39.3402 19.1499C37.5402 15.9799 35.7302 12.8099 33.9302 9.62995C33.6202 9.07995 33.3202 8.48995 32.5702 8.48995C31.8502 8.49995 31.5602 9.05995 31.2602 9.58995C31.2302 9.64995 31.2002 9.70995 31.1602 9.77995C23.7902 22.7099 16.4402 35.6399 9.0802 48.57C8.1702 50.1699 7.2502 51.7599 6.3702 53.3699C5.8202 54.3699 6.3202 55.2599 7.4502 55.3699C7.6802 55.3899 7.9202 55.38 8.1502 55.38C16.2902 55.37 24.4402 55.3699 32.5802 55.3699Z"/>
<path d="M34.9802 32.5801C34.9802 35.2301 34.9802 37.8801 34.9802 40.5301C34.9802 41.7601 34.5802 42.1601 33.3502 42.1601C32.7502 42.1601 32.1402 42.1701 31.5402 42.1601C30.6302 42.1401 30.1702 41.6901 30.1702 40.7701C30.1602 38.9801 30.1602 37.1901 30.1602 35.4001C30.1602 31.8001 30.1602 28.1901 30.1602 24.5901C30.1602 23.3101 30.5502 22.9301 31.8202 22.9301C32.3802 22.9301 32.9402 22.9301 33.4902 22.9301C34.5402 22.9401 34.9702 23.3701 34.9702 24.4201C34.9902 27.1401 34.9802 29.8601 34.9802 32.5801Z"/>
<path d="M32.5302 50.5501C30.2602 50.5501 30.1602 50.4501 30.1602 48.1501C30.1602 45.8401 30.2402 45.7601 32.5402 45.7601C32.9102 45.7601 33.2802 45.7501 33.6502 45.7601C34.5302 45.7901 34.9502 46.2101 34.9802 47.1101C35.0002 47.8101 35.0002 48.5001 34.9802 49.2001C34.9602 50.1101 34.5002 50.5301 33.5802 50.5501C33.2302 50.5601 32.8802 50.5501 32.5302 50.5501Z"/>
</svg>
