<svg xmlns="http://www.w3.org/2000/svg" viewBox="1901 -96 40 40">
  <defs>
    <style>
      .cls-1 {
        fill: #fff;
        opacity: 0;
      }

      .cls-2 {
        fill: #5cc96a;
      }

      .cls-3 {
        fill: #464c55;
      }
    </style>
  </defs>
  <g id="Group_49" data-name="Group 49" transform="translate(1901 -96)">
    <path id="Path_513" data-name="Path 513" class="cls-1" d="M0,20V.1C0,0,0,0,.1,0H39.9c.1,0,.1,0,.1.1V39.9c0,.1,0,.1-.1.1H.1C0,40,0,40,0,39.9ZM5,35l.3-.3c.4-.4.8-.7,1.2-1.1.2-.2.5-.4.7-.6.4-.4.8-.7,1.2-1.1.3-.2.5-.5.8-.7.4-.4.8-.7,1.2-1.1l.7-.7.9-.9c.1-.1.1-.1.2-.1H32.4a2.769,2.769,0,0,0,.9-.1,2.73,2.73,0,0,0,1.2-.9,2.456,2.456,0,0,0,.5-1.5V7.6a1.483,1.483,0,0,0-.1-.7A2.73,2.73,0,0,0,34,5.7,1.8,1.8,0,0,0,32.5,5H7.3a2.544,2.544,0,0,0-.7.2A2.365,2.365,0,0,0,5.3,6.3,2.016,2.016,0,0,0,5,7.4V35Z"/>
    <path id="Path_514" data-name="Path 514" class="cls-2" d="M5,35V7.3a2.607,2.607,0,0,1,.3-1.1A2.365,2.365,0,0,1,6.6,5.1c.3,0,.5-.1.7-.1H32.5a2.976,2.976,0,0,1,1.5.5,2.73,2.73,0,0,1,.9,1.2,2.2,2.2,0,0,1,.1.8V25.8a2.26,2.26,0,0,1-.5,1.5,2.151,2.151,0,0,1-1.2.9,2.769,2.769,0,0,1-.9.1H12.2c-.1,0-.2,0-.2.1l-.9.9a4.62,4.62,0,0,0-.7.7c-.4.4-.8.7-1.2,1.1a5.716,5.716,0,0,1-.8.7L7.2,33c-.3.2-.5.5-.8.7-.4.4-.8.7-1.2,1.1ZM20.2,19.6h1.2c.1,0,.1,0,.1-.1v-.4a2.106,2.106,0,0,1,.5-1.3,4.741,4.741,0,0,1,1-1,8.3,8.3,0,0,0,1.5-1.7,3.022,3.022,0,0,0,.5-1.6,4.869,4.869,0,0,0-.1-1.2,3.256,3.256,0,0,0-1.2-2.1,4.141,4.141,0,0,0-2.3-.9,4.3,4.3,0,0,0-1.6,0,4.657,4.657,0,0,0-2,.6,3.39,3.39,0,0,0-1.7,2,3.178,3.178,0,0,0-.2,1.4c0,.2,0,.2.2.2h2.5c.2,0,.2,0,.3-.2v-.2a1.39,1.39,0,0,1,1-1.2,2.845,2.845,0,0,1,1.3,0,1.085,1.085,0,0,1,.8.8,2.769,2.769,0,0,1,.1,1.3,2.577,2.577,0,0,1-.8,1.3,11.408,11.408,0,0,0-1.1,1.1,2.9,2.9,0,0,0-.9,1.5,12.5,12.5,0,0,0-.3,1.9c0,.1,0,.1.1.1A1.431,1.431,0,0,1,20.2,19.6Zm0,1.5a1.561,1.561,0,0,0-1.6,1.5,1.612,1.612,0,0,0,.6,1.3,1.883,1.883,0,0,0,1.5.3A1.553,1.553,0,0,0,21.8,22,1.8,1.8,0,0,0,20.2,21.1Z"/>
    <path id="Path_515" data-name="Path 515" class="cls-3" d="M20.2,19.6H19c-.1,0-.1,0-.1-.1a6.279,6.279,0,0,1,.3-1.9,3.766,3.766,0,0,1,.9-1.5A11.408,11.408,0,0,0,21.2,15a2.577,2.577,0,0,0,.8-1.3,1.99,1.99,0,0,0-.1-1.3c-.1-.4-.4-.6-.8-.8a2.845,2.845,0,0,0-1.3,0,1.39,1.39,0,0,0-1,1.2V13c0,.2,0,.2-.3.2H16c-.2,0-.2,0-.2-.2a6.753,6.753,0,0,1,.2-1.4,3.39,3.39,0,0,1,1.7-2,6.637,6.637,0,0,1,2-.6h1.6a4.648,4.648,0,0,1,2.3.9A3.2,3.2,0,0,1,24.8,12a4.869,4.869,0,0,1,.1,1.2,4.284,4.284,0,0,1-.5,1.6,11.431,11.431,0,0,1-1.5,1.7,9.428,9.428,0,0,0-1,1,2.106,2.106,0,0,0-.5,1.3v.4c0,.1,0,.1-.1.1A1.431,1.431,0,0,1,20.2,19.6Z"/>
    <path id="Path_516" data-name="Path 516" class="cls-3" d="M20.2,21.1a1.623,1.623,0,0,1,1.6.8,1.5,1.5,0,0,1-1.1,2.2,1.68,1.68,0,0,1-1.5-.3,1.486,1.486,0,0,1-.6-1.3A1.55,1.55,0,0,1,20.2,21.1Z"/>
  </g>
</svg>
