<svg width="60" height="60" viewBox="0 0 60 60" fill="none" xmlns="http://www.w3.org/2000/svg">
<path fill-rule="evenodd" clip-rule="evenodd" d="M6.69143 25.2476L6.69142 25.252C6.6908 27.198 6.69018 29.144 6.69018 31.09C6.69018 38.91 6.69018 46.73 6.71018 54.55C6.71018 56.66 7.78018 57.72 9.88018 57.72H50.1702C52.1702 57.72 53.2802 56.64 53.2802 54.65C53.2902 38.97 53.2902 23.28 53.2802 7.59C53.2702 5.56 52.2002 4.5 50.2002 4.49C48.2539 4.48333 46.3031 4.48555 44.3509 4.48778H44.3508H44.3506H44.3505H44.3503H44.3502H44.35C43.3736 4.48889 42.3969 4.49 41.4202 4.49C39.9802 4.49 39.9202 4.49 40.0002 3.09C40.0402 2.33 39.7502 2.25 39.1002 2.25C34.7056 2.265 30.3166 2.26313 25.9247 2.26125H25.9246H25.9238H25.9231H25.9223H25.9216H25.9209H25.9201C24.4572 2.26063 22.994 2.26 21.5302 2.26C20.0102 2.26 19.9802 2.26 20.0102 3.79C20.0202 4.36 19.8702 4.51 19.3002 4.5C17.3189 4.48125 15.3377 4.48203 13.3564 4.48281C12.1677 4.48328 10.9789 4.48375 9.79018 4.48C9.16018 4.48 8.55018 4.53 8.01018 4.88C6.97018 5.55 6.68018 6.54 6.68018 7.72C6.69518 13.5625 6.6933 19.405 6.69143 25.2476ZM45.4989 25.9442C45.4995 27.5094 45.5002 29.0747 45.5002 30.64C45.5002 32.1776 45.4995 33.7153 45.4989 35.2529C45.497 39.8653 45.4952 44.4776 45.5102 49.09C45.5102 49.76 45.4102 49.99 44.6602 49.99C34.8602 49.96 25.0502 49.96 15.2502 49.98C14.6302 49.98 14.4502 49.85 14.4502 49.2C14.4702 36.77 14.4702 24.33 14.4502 11.9C14.4502 11.25 14.6402 11.11 15.2502 11.13C16.6202 11.17 17.9902 11.16 19.3602 11.13C19.8202 11.12 20.0102 11.18 20.0102 11.72C20.0002 13.37 20.0302 13.37 21.6702 13.37C22.8319 13.37 23.994 13.3696 25.1565 13.3692H25.1574H25.1584H25.1593H25.1603H25.1612H25.1622H25.1623H25.1624H25.1624H25.1625H25.1626H25.1627C29.8218 13.3676 34.486 13.366 39.1502 13.39C39.8202 13.39 40.0202 13.24 39.9902 12.56C39.9302 11.14 39.9702 11.14 41.3802 11.14C41.6849 11.14 41.9903 11.1422 42.2963 11.1444H42.2963H42.2964H42.2964H42.2965H42.2965L42.2969 11.1445H42.297C43.1155 11.1504 43.9378 11.1564 44.7602 11.12C45.3702 11.09 45.5102 11.27 45.5102 11.87C45.4952 16.5572 45.497 21.25 45.4989 25.9442ZM51.0702 7.93V31.14C51.0702 38.85 51.0702 46.57 51.0802 54.28C51.0802 55.4 50.9902 55.49 49.9002 55.49H10.0802C8.99018 55.49 8.90018 55.39 8.90018 54.28V7.93C8.90018 6.78 8.98018 6.7 10.1502 6.69C11.0189 6.69 11.8869 6.69163 12.7545 6.69327L12.7549 6.69327C14.9231 6.69735 17.0891 6.70143 19.2602 6.68C19.8302 6.67 20.0402 6.77 20.0202 7.41L20.0163 7.52678C19.9713 8.89 19.9713 8.89 18.5702 8.89C18.1002 8.89 17.6302 8.89062 17.1602 8.89125C15.7502 8.89313 14.3402 8.895 12.9302 8.88C12.4402 8.87 12.2402 8.95 12.2402 9.52C12.2602 23.51 12.2502 37.51 12.2402 51.51C12.2302 52.03 12.3702 52.18 12.9002 52.18C24.2902 52.16 35.6802 52.16 47.0702 52.18C47.6102 52.18 47.7402 52.04 47.7402 51.51C47.7202 37.52 47.7202 23.52 47.7402 9.52C47.7402 8.96 47.5402 8.87 47.0502 8.88C46.0821 8.88909 45.1161 8.88785 44.1512 8.88661H44.1511H44.151H44.1508H44.1507H44.1506H44.1505H44.1502H44.1502H44.1502H44.1501H44.1501H44.1501C42.9924 8.88512 41.8363 8.88364 40.6802 8.9C40.1502 8.91 39.9502 8.81 39.9602 8.22L39.9619 8.1312C39.9896 6.7 39.9896 6.7 41.4402 6.7H49.8202C50.9902 6.7 51.0702 6.78 51.0702 7.93ZM27.9973 4.49327C28.6716 4.49163 29.3459 4.49 30.0202 4.49C30.6018 4.49 31.1841 4.49125 31.7667 4.4925H31.767H31.7672H31.7675H31.7678H31.768H31.7683H31.7684H31.7684H31.7685H31.7685H31.7685H31.7685C33.5191 4.49625 35.2724 4.5 37.0202 4.47C37.6402 4.46 37.7602 4.65 37.7502 5.23C37.7202 6.97 37.7302 8.72 37.7502 10.46C37.7602 10.95 37.6902 11.15 37.1202 11.15C32.3702 11.12 27.6202 11.13 22.8702 11.15C22.3202 11.15 22.2102 10.99 22.2202 10.48C22.2502 8.71 22.2602 6.94 22.2202 5.17C22.2102 4.58 22.4002 4.47 22.9402 4.48C24.6259 4.50143 26.3116 4.49735 27.9973 4.49327ZM27.3955 41.0876H27.396H27.3965H27.3969H27.3974H27.3979H27.3983C28.2624 41.0888 29.1263 41.0901 29.9902 41.0901H39.6502C40.3685 41.0901 40.7186 41.0901 40.8952 40.9151C41.0631 40.7487 41.0744 40.4242 41.0963 39.7914L41.1002 39.6801C41.1302 39.0201 40.9602 38.8401 40.2802 38.8401C34.9538 38.8641 29.6337 38.8625 24.3099 38.8609H24.3092H24.3084H24.3077H24.307H24.3063H24.3056C22.9741 38.8605 21.6423 38.8601 20.3102 38.8601C19.6001 38.8601 19.245 38.8601 19.0639 39.0376C18.8828 39.2151 18.8757 39.5701 18.8614 40.2801L18.8602 40.3401C18.8402 40.9301 18.9802 41.1201 19.6002 41.1101C22.2029 41.0801 24.7999 41.0838 27.3955 41.0876ZM29.99 46.6099C29.1296 46.6099 28.2698 46.6093 27.4103 46.6086C24.8335 46.6068 22.2596 46.6049 19.68 46.6199C19.1 46.6199 18.84 46.5399 18.86 45.8599L18.8655 45.7214C18.8912 45.0783 18.9044 44.7482 19.0761 44.5787C19.2573 44.3999 19.615 44.3999 20.35 44.3999C21.9979 44.3999 23.6465 44.4005 25.2954 44.4011H25.2964H25.2973H25.2982H25.2992H25.3001H25.3025C30.255 44.403 35.2103 44.4049 40.16 44.3899C40.86 44.3899 41.14 44.5099 41.1 45.2899L41.0928 45.4263V45.4264C41.0633 45.9993 41.048 46.2949 40.8925 46.4474C40.7267 46.6099 40.4016 46.6099 39.73 46.6099H29.99ZM32.941 33.3333H32.94H32.939H32.9379H32.9369C31.9575 33.3317 30.9784 33.33 30.0002 33.33C26.7602 33.33 23.5102 33.33 20.2602 33.34C18.9184 33.34 18.9184 33.34 18.8661 34.5812L18.8602 34.72C18.8302 35.4 19.0402 35.55 19.7002 35.55C25.02 35.526 30.3462 35.5276 35.6685 35.5292H35.6702H35.6709H35.6716H35.6723H35.6731C37.0024 35.5296 38.3315 35.53 39.6602 35.53C40.3702 35.53 40.7178 35.53 40.894 35.3562C41.063 35.1895 41.0742 34.8629 41.0963 34.2228L41.1002 34.11C41.1202 33.46 40.9202 33.31 40.3002 33.32C37.8506 33.3415 35.3959 33.3374 32.9435 33.3333H32.9434H32.9433H32.9433H32.941ZM24.4501 20.5599C24.4501 21.3983 24.4501 21.8157 24.6588 22.0236C24.8659 22.2299 25.2784 22.2299 26.1001 22.2299H26.5801C27.1718 22.2299 27.4668 22.2299 27.6138 22.3774C27.7601 22.5241 27.7601 22.8166 27.7601 23.3999C27.7601 23.8847 27.7601 24.1436 27.6311 24.2837C27.4834 24.4442 27.1666 24.449 26.4868 24.4593L26.4501 24.4599C26.2545 24.4629 26.042 24.4389 25.8299 24.4149C25.348 24.3604 24.8678 24.306 24.5901 24.5699C24.3027 24.8433 24.3593 25.3329 24.4153 25.8183C24.4393 26.0253 24.4631 26.2315 24.4601 26.4199L24.4597 26.4473V26.4473C24.4501 27.0921 24.4454 27.4082 24.2851 27.5712C24.1309 27.7279 23.8329 27.7431 23.2483 27.7728H23.2483L23.1101 27.7799C22.3401 27.8199 22.1601 27.5499 22.2201 26.8499C22.2524 26.5483 22.2441 26.2438 22.2358 25.9396V25.9395V25.9395V25.9395C22.2287 25.6788 22.2216 25.4183 22.2401 25.1599C22.2801 24.6199 22.1401 24.3899 21.5501 24.4299C21.1265 24.4593 20.6994 24.4541 20.2729 24.4489C19.9746 24.4453 19.6765 24.4417 19.3801 24.4499C19.0001 24.4599 18.8901 24.3299 18.8701 23.9399L18.8687 23.9099V23.9099C18.8294 23.0646 18.8097 22.6421 19.0113 22.4309C19.2128 22.2199 19.6354 22.2199 20.4801 22.2199C21.3453 22.2199 21.7827 22.2199 22.0039 22.0012C22.2301 21.7775 22.2301 21.3251 22.2301 20.4099C22.2301 19.6231 22.2301 19.233 22.4251 19.0397C22.617 18.8495 22.9975 18.8496 23.7523 18.8499L23.8401 18.8499C24.3601 18.8499 24.5001 19.0199 24.4501 19.4999C24.4301 19.7402 24.4368 19.9761 24.4435 20.2105V20.2105V20.2106V20.2107V20.2108V20.2109C24.4468 20.3275 24.4501 20.4437 24.4501 20.5599V20.5599ZM34.8234 18.8768C35.2291 18.8784 35.6346 18.8801 36.0401 18.8801H39.5801C40.3451 18.8801 40.7176 18.8801 40.9038 18.6938C41.0806 18.5171 41.0896 18.1726 41.1072 17.5011V17.5011L41.1101 17.3901C41.1301 16.7501 40.9001 16.6501 40.3301 16.6601C38.5086 16.6815 36.6872 16.6774 34.8658 16.6733C34.1372 16.6717 33.4086 16.6701 32.6801 16.6701C31.8751 16.6701 31.4801 16.6701 31.2838 16.8676C31.0948 17.0578 31.0902 17.4314 31.0811 18.1649L31.0801 18.2501C31.0801 18.8201 31.2801 18.9001 31.7701 18.8901C32.7917 18.8686 33.8082 18.8727 34.8232 18.8768H34.8234ZM34.8426 24.4466H34.8422H34.842C33.7882 24.4425 32.7366 24.4385 31.6798 24.4599C31.2298 24.4699 31.0898 24.3399 31.0898 23.8799L31.0891 23.8213C31.0794 23.037 31.0746 22.6416 31.2698 22.4424C31.4682 22.2399 31.8732 22.2399 32.6898 22.2399C33.4184 22.2399 34.147 22.2415 34.8755 22.2432C36.697 22.2472 38.5184 22.2513 40.3398 22.2299C40.9098 22.2199 41.1298 22.3199 41.1098 22.9599C41.1086 22.9984 41.1073 23.0358 41.1061 23.0723C41.084 23.751 41.0727 24.0977 40.8936 24.2749C40.7066 24.4599 40.3365 24.4599 39.5798 24.4599C38.4201 24.4499 37.2703 24.4499 36.1105 24.4499H36.1098C35.6868 24.4499 35.2645 24.4483 34.8426 24.4466ZM34.8131 29.9868C35.2188 29.9884 35.6245 29.9901 36.0302 29.9901H39.6502C40.3669 29.9901 40.7196 29.9901 40.899 29.8138C41.0826 29.6334 41.0849 29.2684 41.1102 28.5301C41.1302 27.8601 40.9102 27.7401 40.3002 27.7501C38.4791 27.7715 36.6631 27.7674 34.845 27.7633C34.1172 27.7617 33.3891 27.7601 32.6602 27.7601C31.8784 27.7601 31.4908 27.7601 31.2963 27.9539C31.0976 28.1518 31.1003 28.5517 31.0902 29.3601C31.0802 29.9201 31.2802 30.0101 31.7702 30.0001C32.7845 29.9786 33.7988 29.9827 34.8131 29.9868Z" fill="url(#paint0_linear)"/>
<defs>
<linearGradient id="paint0_linear" x1="6.68018" y1="30.6013" x2="53.2877" y2="30.6013" gradientUnits="userSpaceOnUse">
<stop stop-color="#458FF6"/>
<stop offset="1" stop-color="#FD749B"/>
</linearGradient>
</defs>
</svg>
