<svg width="65" height="65" viewBox="0 0 65 65" fill="none" xmlns="http://www.w3.org/2000/svg">
<path fill-rule="evenodd" clip-rule="evenodd" d="M52.998 31.4905V31.481C52.998 29.7617 52.9985 28.0424 52.999 26.3232V26.3185V26.3181V26.3178V26.3174V26.317V26.3166C53.0005 21.1634 53.002 16.0114 52.9898 10.8639C52.9898 9.00517 52.0645 8.07984 50.2139 8.07984H42.5596C41.3015 8.07984 41.2771 8.07984 41.3177 6.84606C41.342 6.28599 41.2284 6.10742 40.6115 6.10742C36.7151 6.13177 32.8142 6.12873 28.9155 6.12568C27.6163 6.12467 26.3174 6.12366 25.0189 6.12366C23.7283 6.12366 23.6877 6.13177 23.7445 7.3899C23.7689 8.02302 23.5497 8.1123 22.9897 8.10419C21.2024 8.08352 19.4118 8.08587 17.6221 8.08822H17.6221H17.6221H17.6221H17.6221H17.6221H17.6221C16.5996 8.08956 15.5773 8.0909 14.5562 8.08795C13.436 8.07984 12.6812 8.61555 12.2104 9.5977C12.0208 9.99787 12.0256 10.4284 12.0303 10.8578C12.0311 10.9248 12.0318 10.9919 12.0318 11.0588V51.8788C12.0318 52.1142 12.0318 52.3496 12.048 52.585C12.1536 53.9162 13.1276 54.874 14.4588 54.874C26.4799 54.8821 38.5092 54.8821 50.5304 54.874C51.6424 54.874 52.6165 54.1597 52.8762 53.1613C52.9817 52.7554 52.9898 52.3171 52.9898 51.895C52.998 45.0881 52.998 38.2893 52.998 31.4905ZM46.1466 27.6905V27.6907V27.6909V27.6911V27.6913V27.6915V27.6917C46.1469 28.7871 46.1473 29.8824 46.1473 30.9777C46.1473 32.344 46.1468 33.7098 46.1463 35.075V35.0769V35.0788V35.0807V35.0826V35.0845V35.0864C46.1447 39.1755 46.1432 43.259 46.1554 47.3333C46.1554 47.8772 46.0336 48.0314 45.4655 48.0314C36.8128 48.0151 28.1683 48.0151 19.5237 48.0314C18.9961 48.0314 18.8663 47.9096 18.8663 47.3739C18.8825 36.416 18.8825 25.4501 18.8663 14.4922C18.8663 14.0052 18.9799 13.8591 19.4831 13.8753C20.7088 13.9159 21.9426 13.9078 23.1682 13.8834C23.5578 13.8753 23.7364 13.924 23.7364 14.4029C23.7283 15.8559 23.7527 15.8559 25.1894 15.8559C26.2128 15.8559 27.2359 15.8555 28.2588 15.8552L28.2672 15.8552H28.2672H28.2672H28.2672H28.2673H28.2673H28.2673C32.3689 15.8539 36.4673 15.8526 40.5709 15.8721C41.1391 15.8802 41.342 15.7747 41.3177 15.1578C41.269 13.8997 41.3096 13.8997 42.6002 13.8997C42.8759 13.8997 43.1522 13.9023 43.4289 13.905C44.1214 13.9116 44.8158 13.9182 45.506 13.8834C46.0336 13.8591 46.1635 13.9971 46.1635 14.5328C46.144 18.9225 46.1453 23.307 46.1466 27.6905ZM51.0661 11.0344V31.5134C51.0661 38.2911 51.0661 45.0687 51.0743 51.8626C51.0743 52.861 51.0174 52.9178 50.0353 52.9178H15.027C14.0448 52.9178 13.988 52.861 13.988 51.8626V11.1075C13.988 10.0847 14.0529 10.0117 15.0594 10.0117C16.0668 10.0086 17.0753 10.009 18.0846 10.0094H18.0846H18.0846H18.0846H18.0847H18.0847H18.0847C19.7671 10.01 21.4514 10.0107 23.1358 9.99543C23.639 9.98732 23.7608 10.1334 23.7527 10.6204L23.7514 10.6913C23.7402 11.311 23.7345 11.624 23.5752 11.7821C23.4125 11.9435 23.0898 11.9435 22.4377 11.9435C21.9647 11.9435 21.4923 11.9448 21.0202 11.9462H21.02H21.0198H21.0197H21.0195H21.0193H21.0192C19.8391 11.9495 18.6607 11.9528 17.4783 11.9354C17.0318 11.9273 16.9263 12.049 16.9263 12.4873C16.9344 24.817 16.9344 37.1547 16.9263 49.4843C16.9263 49.882 17.0237 49.9957 17.4296 49.9957C27.4946 49.9876 37.5596 49.9794 47.6246 50.0038C48.1418 50.0038 48.1333 49.7688 48.1228 49.4769C48.1213 49.4344 48.1197 49.3907 48.1197 49.3463V20.8559C48.1197 20.0647 48.1184 19.2742 48.117 18.484V18.4832C48.1137 16.5091 48.1104 14.5368 48.1278 12.5604C48.1278 12.0653 47.9979 11.9273 47.5028 11.9354C46.4845 11.9487 45.4662 11.9475 44.4479 11.9462C43.5993 11.9452 42.7507 11.9442 41.9021 11.9516C41.4882 11.9516 41.2852 11.911 41.2933 11.3997L41.2946 11.3295C41.3173 10.0036 41.3173 10.0035 42.6976 10.0035H50.0678C50.9768 10.0035 51.0661 10.101 51.0661 11.0344ZM30.9341 8.06462C31.4597 8.06411 31.9853 8.0636 32.5108 8.0636C32.9726 8.0636 33.4343 8.0644 33.8961 8.06521C35.5123 8.06801 37.1285 8.07082 38.7446 8.03925C39.256 8.03925 39.3615 8.18536 39.3534 8.67237C39.3209 10.2552 39.3291 11.838 39.3453 13.4208C39.3453 13.7779 39.2722 13.9078 38.8826 13.9078C34.6293 13.8916 30.3842 13.8916 26.1309 13.9078C25.7494 13.9078 25.6601 13.7942 25.6683 13.4289C25.6926 11.7974 25.6926 10.174 25.6683 8.5425C25.6683 8.10419 25.8306 8.05549 26.204 8.05549C27.7807 8.06766 29.3574 8.06614 30.9341 8.06462ZM34.8569 38.284H34.8565H34.8561H34.8557H34.8554H34.855H34.8546C34.1003 38.2835 33.3462 38.283 32.592 38.283C29.7105 38.283 26.8371 38.283 23.9637 38.2911C23.3751 38.2911 23.0866 38.2911 22.9377 38.4353C22.7947 38.5739 22.7807 38.8458 22.7533 39.379L22.7462 39.5168C22.7137 40.1661 22.9328 40.2635 23.5254 40.2635C28.1685 40.2441 32.8167 40.2454 37.4619 40.2467H37.4625H37.4631H37.4636H37.4642H37.4648H37.4654C38.6253 40.247 39.7849 40.2473 40.9443 40.2473C41.6126 40.2473 41.9435 40.2473 42.1102 40.0819C42.2736 39.9197 42.2793 39.5986 42.2905 38.9627L42.2917 38.8918C42.2998 38.3804 42.1456 38.2749 41.6586 38.2749C39.3884 38.2871 37.1229 38.2856 34.8584 38.284H34.8569ZM30.2632 35.3762H30.2628C27.9976 35.3747 25.7313 35.3732 23.4604 35.3854C22.9491 35.3854 22.7218 35.3204 22.738 34.7198L22.7423 34.6074C22.7633 34.0421 22.7741 33.7518 22.9247 33.6027C23.0836 33.4454 23.3982 33.4454 24.0449 33.4454C25.2045 33.4454 26.3644 33.4458 27.5245 33.4461H27.5251H27.5257H27.5263H27.5269H27.5275H27.5281C32.173 33.4474 36.821 33.4487 41.4638 33.4292C42.0645 33.4292 42.3323 33.5104 42.2917 34.2084L42.2845 34.3414C42.2575 34.843 42.2436 35.1017 42.1071 35.2352C41.9618 35.3773 41.6775 35.3773 41.0904 35.3773H32.5271C31.773 35.3773 31.0189 35.3768 30.2647 35.3762H30.2644H30.264H30.2636H30.2632ZM34.7833 43.1705H34.7829H34.7826H34.7822H34.7818C34.0274 43.17 33.2732 43.1695 32.519 43.1695C29.6618 43.1695 26.8046 43.1695 23.9556 43.1776C23.3618 43.1776 23.0755 43.1776 22.9298 43.3207C22.7942 43.4538 22.7803 43.7109 22.7534 44.2071L22.7462 44.3383C22.7056 45.0202 22.9491 45.1257 23.566 45.1257C28.209 45.1062 32.8571 45.1075 37.5022 45.1088H37.5028C38.6637 45.1091 39.8245 45.1094 40.9849 45.1094C42.2521 45.1094 42.2524 45.1018 42.2956 43.9469L42.2999 43.8351C42.3161 43.2507 42.1051 43.1614 41.5856 43.1614C39.3147 43.1736 37.0485 43.172 34.7833 43.1705ZM29.0611 25.5963C28.3387 25.5963 27.9795 25.5963 27.801 25.7758C27.6244 25.9534 27.6244 26.3065 27.6244 27.0086V27.1466C27.6244 27.8529 27.6244 28.208 27.4469 28.3826C27.2674 28.5592 26.9063 28.5512 26.18 28.5351L26.1553 28.5346C25.79 28.5265 25.6601 28.4372 25.6764 28.0638C25.6904 27.8001 25.6847 27.5334 25.679 27.2663C25.6714 26.9167 25.6639 26.5663 25.7007 26.2213C25.7575 25.6531 25.5221 25.5476 25.0189 25.58C24.6753 25.6039 24.3289 25.5997 23.9814 25.5955H23.9814H23.9814H23.9813H23.9813H23.9812H23.9812C23.7376 25.5925 23.4935 25.5896 23.2494 25.5963C22.9247 25.6044 22.7543 25.5719 22.738 25.1498L22.7361 25.0798C22.7169 24.378 22.7071 24.0222 22.8802 23.8418C23.0582 23.6563 23.4295 23.6563 24.1828 23.6563C25.6845 23.6563 25.6845 23.6563 25.6845 22.179V22.106C25.6845 21.3649 25.6845 20.9935 25.8698 20.8191C26.0561 20.6439 26.4294 20.6675 27.1777 20.7149L27.2267 20.718C27.5351 20.7342 27.6325 20.8235 27.6244 21.1238C27.6175 21.416 27.6195 21.7096 27.6214 22.0035V22.0036V22.0036V22.0036C27.6241 22.3955 27.6267 22.7878 27.6082 23.1774C27.592 23.5427 27.6894 23.6807 28.079 23.6644C28.3953 23.6482 28.7137 23.6523 29.0331 23.6563H29.0331H29.0331H29.0332H29.0332C29.353 23.6604 29.6738 23.6644 29.9946 23.6482C30.3923 23.632 30.5709 23.6969 30.5628 24.1677L30.5628 24.2339C30.563 24.8929 30.563 25.2332 30.3931 25.4088C30.2117 25.5963 29.8366 25.5963 29.0611 25.5963ZM38.9377 18.7953C38.6191 18.7948 38.3004 18.7943 37.9816 18.7943C36.9427 18.7943 35.9037 18.7943 34.8729 18.7861C34.1869 18.7861 33.8459 18.7861 33.6754 18.9566C33.507 19.1252 33.5051 19.4603 33.5015 20.1267V20.1267L33.5011 20.1985C33.493 20.653 33.631 20.7342 34.053 20.7342C35.7513 20.722 37.4449 20.7235 39.1409 20.7251C39.7065 20.7256 40.2724 20.7261 40.8388 20.7261C41.5908 20.7261 41.9621 20.7261 42.1404 20.5406C42.3143 20.3596 42.3044 20.002 42.2849 19.2957V19.2957L42.2836 19.2488C42.2755 18.8673 42.1537 18.778 41.7966 18.7861C40.847 18.7983 39.8929 18.7968 38.9377 18.7953ZM37.8599 25.5961C37.4956 25.5961 37.1313 25.5948 36.7672 25.5935C35.8576 25.5902 34.9492 25.5868 34.0449 25.6042C33.6066 25.6124 33.493 25.4825 33.5011 25.0523L33.5011 25.0047C33.501 24.3356 33.501 23.9985 33.6695 23.8287C33.8406 23.6562 34.1856 23.6562 34.881 23.6562C35.5283 23.6562 36.1749 23.6575 36.8213 23.6588C38.4362 23.6621 40.0494 23.6654 41.6667 23.6481C42.1538 23.6399 42.2999 23.7698 42.2917 24.2649C42.2913 24.2891 42.2909 24.3129 42.2905 24.3362C42.2792 24.9611 42.2736 25.276 42.1133 25.4348C41.9503 25.5961 41.6276 25.5961 40.9768 25.5961H37.8599ZM39.0129 28.5292C38.6558 28.5278 38.2984 28.5265 37.9411 28.5265H34.9053C33.5247 28.5265 33.5247 28.5265 33.4951 29.8154C33.4944 29.8451 33.4937 29.8754 33.493 29.9064C33.4767 30.4259 33.6553 30.507 34.1261 30.4989C35.7434 30.4815 37.3565 30.4848 38.9714 30.4882C39.6178 30.4895 40.2645 30.4908 40.9119 30.4908C42.2678 30.4908 42.2678 30.4908 42.2828 29.1507C42.2831 29.127 42.2833 29.103 42.2836 29.0785C42.2917 28.5833 42.1132 28.5103 41.683 28.5184C40.7961 28.5358 39.9051 28.5325 39.0129 28.5292Z" fill="url(#paint0_linear)"/>
<defs>
<linearGradient id="paint0_linear" x1="12.0288" y1="31.0357" x2="53" y2="31.0357" gradientUnits="userSpaceOnUse">
<stop stop-color="#458FF6"/>
<stop offset="1" stop-color="#FD749B"/>
</linearGradient>
</defs>
</svg>
