<svg width="65" height="66" viewBox="0 0 65 66" fill="none" xmlns="http://www.w3.org/2000/svg">
<path d="M52.1869 28.072C52.9507 27.6414 52.8044 27.0076 52.715 26.3901C51.9838 21.4501 51.22 16.5101 50.5375 11.5539C50.3832 10.4489 49.8875 9.57137 49.01 8.79949C47.5313 7.49949 45.6869 6.70324 43.6882 6.22387C36.9119 4.59887 30.0625 4.63949 23.205 5.72824C20.6457 6.13449 18.2082 6.87387 16.185 8.36074C15.0069 9.23012 14.1944 10.2457 14.0969 11.6595C14.0075 12.9676 13.7232 14.2676 13.5282 15.5676C12.9757 19.2807 12.4313 22.9939 11.8869 26.707C11.8382 27.0482 11.7082 27.4789 12.0575 27.6982C12.3094 27.8526 12.4313 28.0151 12.48 28.1857L18.3057 27.4464H18.3138C26.3982 26.2926 34.5069 25.862 42.6644 27.0076C44.2163 27.227 45.7682 27.4301 47.32 27.6007C47.4663 27.617 47.5719 27.6414 47.6613 27.682L52.2032 28.7626C52.1788 28.6895 52.1625 28.6082 52.13 28.5351C52.0975 28.3807 51.9594 28.202 52.1869 28.072ZM49.4813 25.797C45.8819 25.2364 42.2582 24.7895 38.61 24.4807C33.93 24.0826 29.2582 24.1557 24.5863 24.6026C21.4338 24.9032 18.2975 25.2851 15.1938 25.8214C14.6413 25.9189 14.5763 25.8051 14.6413 25.3582C15.3238 20.7107 15.9819 16.0632 16.64 11.4157C16.7294 10.7982 17.2007 10.392 17.7207 10.0345C19.4675 8.79949 21.5475 8.16574 23.7332 7.81637C30.0138 6.80074 36.2782 6.78449 42.4938 8.14949C43.68 8.40949 44.8013 8.82387 45.8494 9.36012C47.1413 10.0264 47.9863 10.8307 48.1569 12.2689C48.6607 16.6076 49.3675 20.9301 49.9932 25.2526C50.0013 25.3257 50.0094 25.3989 50.0257 25.4801C50.1719 25.9757 49.8144 25.8457 49.4813 25.797Z" fill="url(#paint0_linear)"/>
<path d="M34.6288 29.8116C33.1988 29.0722 31.7688 29.0884 30.3144 29.6084C29.9407 29.7384 29.9975 29.9009 30.1925 30.1691C31.6632 32.2247 31.2488 35.4259 29.6157 37.5059C27.9744 39.6022 25.285 40.4959 22.7582 39.7728C20.1825 39.0416 18.2569 36.7828 17.9563 34.1422C17.5582 30.6241 19.3538 28.5116 23.1807 28.0647C24.5132 27.9103 25.8619 28.2516 27.17 28.2272C28.4375 28.1947 29.5588 27.1709 30.8994 26.9353C32.9875 26.5616 34.8807 27.0734 36.6844 28.0403C37.0663 28.2434 37.3832 28.3084 37.8219 28.2191C39.2032 27.9509 40.5925 27.9266 41.99 28.1459C45.6869 28.7228 47.4663 31.5016 46.4588 35.1253C45.4756 38.6434 41.8925 40.7234 38.4557 39.7809C34.9782 38.8303 32.8088 35.1172 33.7107 31.6884C33.8732 31.0141 34.2225 30.4128 34.6288 29.8116ZM35.9207 33.1509C35.9044 35.6534 37.7082 37.6034 40.0563 37.6197C42.4125 37.6441 44.2813 35.7347 44.33 33.2647C44.3544 31.9322 43.875 31.1928 42.5994 30.7866C40.9825 30.2747 39.3332 30.2909 37.7082 30.7297C36.3838 31.0872 35.9288 31.7697 35.9207 33.1509ZM24.5213 30.3966C23.79 30.4047 23.0669 30.4859 22.36 30.6566C21.1007 30.9572 20.4507 31.6153 20.2963 32.7041C19.9794 34.9466 21.58 37.1728 23.8063 37.5709C25.9838 37.9609 28.1694 36.4009 28.6 34.1341C29.0144 31.9647 28.3319 30.9572 26.1625 30.5591C25.6263 30.4697 25.0657 30.4534 24.5213 30.3966Z" fill="url(#paint1_linear)"/>
<path d="M34.9213 5.02951C34.2063 4.92389 33.5319 4.88326 32.9225 4.89139C31.6713 4.89951 30.5094 4.95639 29.4044 5.07014C31.2488 4.95639 33.085 4.94014 34.9213 5.02951Z" fill="url(#paint2_linear)"/>
<path d="M49.9444 32.5895C50.2856 31.2976 50.6756 30.022 50.9437 28.7138C50.96 28.6326 50.9762 28.5595 50.9925 28.4782L48.6119 27.9095C48.2706 29.502 47.8644 31.0863 47.5069 32.6788C47.2062 34.0682 46.4344 34.7426 45.4837 35.4251C42.0469 37.9113 38.4069 39.9913 34.1737 40.7957C31.9312 41.2182 29.8431 40.5357 27.7875 39.8288C24.2775 38.6101 21.0681 36.8145 18.135 34.5313C17.81 34.2795 17.5013 34.0682 17.6719 33.5482C17.745 33.3288 17.6394 33.0363 17.5663 32.7926C17.0706 31.1188 16.6319 29.4288 16.2906 27.7226L13.8613 28.0313C14.1619 29.5182 14.56 30.9888 14.9988 32.4432C15.1288 32.882 15.1044 33.1745 14.7063 33.4832C14.0481 34.0032 13.6581 34.7426 13.4875 35.547C12.9188 38.212 13.5931 40.6657 15.1531 42.7863C15.8681 43.7613 16.3313 44.7607 16.8106 45.8332C19.0206 50.8138 22.49 54.6976 27.2025 57.4601C27.6331 57.712 28.0231 57.9882 28.3725 58.3457C30.7694 60.7751 34.2875 60.767 36.6844 58.3376C36.9525 58.0695 37.1962 57.7932 37.5456 57.6145C39.3006 56.7288 40.8525 55.5588 42.2419 54.1776C45.11 51.3176 47.6125 48.222 48.7012 44.2082C48.75 44.0376 48.7906 43.8832 48.9369 43.7613C50.4644 42.5507 51.0656 40.8282 51.48 39.0245C51.9756 36.8713 51.8537 34.8482 50.0337 33.2801C49.7575 33.0445 49.8794 32.8495 49.9444 32.5895ZM21.0113 48.4495C19.8494 46.6863 18.8744 45.1101 18.4438 43.2738C18.3381 42.827 18.135 42.502 17.7938 42.1851C16.1525 40.682 15.6813 38.7157 15.7056 36.5788C15.7138 35.9451 15.925 35.807 16.4613 36.262C17.0056 36.7332 17.5744 37.2207 18.2081 37.5538C19.6463 38.3095 20.2963 39.5851 20.7269 41.0313C21.4338 43.4038 21.3769 45.7926 21.0113 48.4495ZM41.1775 51.8782C39.6987 53.3326 38.1387 54.6732 36.2619 55.5995C35.8881 55.7863 35.6037 56.0626 35.3356 56.3713C33.7431 58.2401 31.2731 58.232 29.6725 56.347C29.38 56.0057 29.055 55.7538 28.6569 55.5507C26.6419 54.5188 24.9681 53.032 23.4 51.4232C23.0588 51.0738 23.075 50.7326 23.1563 50.3182C23.6519 47.5557 23.9363 44.7851 23.4406 41.9901C23.3594 41.5432 23.2619 41.0963 23.1156 40.3732C29.185 43.7451 35.1487 44.5007 41.2831 40.7226C41.1369 41.8113 40.9744 42.6563 40.9094 43.5176C40.7144 46.0038 41.015 48.4576 41.4862 50.887C41.5675 51.3257 41.47 51.5857 41.1775 51.8782ZM47.255 42.112C46.8487 42.4938 46.605 42.8676 46.475 43.4038C45.9794 45.4026 44.8825 47.0926 43.6637 48.7176C43.2494 46.0688 43.0625 43.477 43.8587 40.9095C44.2325 39.7232 44.7525 38.6995 45.9225 38.0413C46.8244 37.5376 47.6369 36.8388 48.4169 36.1482C49.0344 35.6038 49.2212 35.9288 49.2537 36.4813C49.3675 38.6263 48.8719 40.5926 47.255 42.112Z" fill="url(#paint3_linear)"/>
<defs>
<linearGradient id="paint0_linear" x1="11.8225" y1="17.1215" x2="52.7886" y2="17.1215" gradientUnits="userSpaceOnUse">
<stop stop-color="#458FF6"/>
<stop offset="1" stop-color="#FD749B"/>
</linearGradient>
<linearGradient id="paint1_linear" x1="17.902" y1="33.5632" x2="46.7373" y2="33.5632" gradientUnits="userSpaceOnUse">
<stop stop-color="#458FF6"/>
<stop offset="1" stop-color="#FD749B"/>
</linearGradient>
<linearGradient id="paint2_linear" x1="29.4044" y1="4.98226" x2="34.9213" y2="4.98226" gradientUnits="userSpaceOnUse">
<stop stop-color="#458FF6"/>
<stop offset="1" stop-color="#FD749B"/>
</linearGradient>
<linearGradient id="paint3_linear" x1="13.2878" y1="44.3036" x2="51.7308" y2="44.3036" gradientUnits="userSpaceOnUse">
<stop stop-color="#458FF6"/>
<stop offset="1" stop-color="#FD749B"/>
</linearGradient>
</defs>
</svg>
